#1:0
#  Hint 1
05 01 00 00 04 01
#1:0
#  MazeInfo 34
05 01 00 00 05 22
#1:0
#  SetDoorState 1 1
06 01 00 00 0F 01 01
#1:1
#  SetDoorState 2 1
06 01 00 01 0F 02 01
#2:0
#  OnLoadMap
05 02 00 00 25 00
#2:1
#  Set MapVar0 0
0A 02 00 01 12 7D 00 00 00 00 00
#2:2
#  Set MapVar1 0
0A 02 00 02 12 7E 00 00 00 00 00
#2:3
#  Set MapVar2 0
0A 02 00 03 12 7F 00 00 00 00 00
#2:4
#  Set MapVar3 0
0A 02 00 04 12 80 00 00 00 00 00
#2:5
#  Set MapVar4 0
0A 02 00 05 12 81 00 00 00 00 00
#2:6
#  Set MapVar5 0
0A 02 00 06 12 82 00 00 00 00 00
#2:7
#  Set MapVar6 0
0A 02 00 07 12 83 00 00 00 00 00
#2:8
#  Set MapVar7 0
0A 02 00 08 12 84 00 00 00 00 00
#2:9
#  Set MapVar8 0
0A 02 00 09 12 85 00 00 00 00 00
#2:10
#  Set MapVar9 0
0A 02 00 0A 12 86 00 00 00 00 00
#2:11
#  Set MapVar10 0
0A 02 00 0B 12 87 00 00 00 00 00
#2:12
#  Set MapVar11 0
0A 02 00 0C 12 88 00 00 00 00 00
#2:13
#  Set MapVar12 0
0A 02 00 0D 12 89 00 00 00 00 00
#2:14
#  Set MapVar13 0
0A 02 00 0E 12 8A 00 00 00 00 00
#2:15
#  Set MapVar14 0
0A 02 00 0F 12 8B 00 00 00 00 00
#2:16
#  Set MapVar15 0
0A 02 00 10 12 8C 00 00 00 00 00
#2:17
#  Set MapVar16 0
0A 02 00 11 12 8D 00 00 00 00 00
#2:18
#  SetDoorState 3 1
06 02 00 12 0F 03 01
#2:19
#  SetDoorState 4 0
06 02 00 13 0F 04 00
#2:20
#  SetDoorState 8 0
06 02 00 14 0F 08 00
#2:21
#  SetDoorState 1 0
06 02 00 15 0F 01 00
#2:22
#  SetDoorState 2 0
06 02 00 16 0F 02 00
#2:23
#  SetDoorState 11 0
06 02 00 17 0F 0B 00
#2:24
#  SetDoorState 9 0
06 02 00 18 0F 09 00
#2:25
#  SetDoorState 5 0
06 02 00 19 0F 05 00
#2:26
#  SetDoorState 61 0
06 02 00 1A 0F 3D 00
#2:27
#  SetDoorState 62 0
06 02 00 1B 0F 3E 00
#2:28
#  SetDoorState 63 0
06 02 00 1C 0F 3F 00
#2:29
#  SetDoorState 64 0
06 02 00 1D 0F 40 00
#2:30
#  Cmp MapVar0 1
0B 02 00 1E 0E 7D 00 01 00 00 00 20
#2:31
#  GoTo
05 02 00 1F 24 21
#2:32
#  SetTexture -833 t3s1on
0F 02 00 20 0B BF FC FF FF 74 33 73 31 6F 6E 00
#2:33
#  Cmp MapVar15 1
0B 02 00 21 0E 8C 00 01 00 00 00 23
#2:34
#  Exit
05 02 00 22 01 00
#2:35
#  SetTexture -1079 mystryb
10 02 00 23 0B C9 FB FF FF 6D 79 73 74 72 79 62 00
#3:0
#  Hint 9
05 03 00 00 04 09
#3:0
#  SetDoorState 3 0
06 03 00 00 0F 03 00
#3:1
#  SetDoorState 4 1
06 03 00 01 0F 04 01
#5:0
#  SetDoorState 5 1
06 05 00 00 0F 05 01
#6:0
#  Hint 1
05 06 00 00 04 01
#6:0
#  SetDoorState 6 1
06 06 00 00 0F 06 01
#7:0
#  Hint 1
05 07 00 00 04 01
#7:0
#  SetDoorState 7 1
06 07 00 00 0F 07 01
#8:0
#  Hint 1
05 08 00 00 04 01
#8:0
#  Cmp MapVar0 1
0B 08 00 00 0E 7D 00 01 00 00 00 02
#8:1
#  DamagePlayer 7 2 15
0A 08 00 01 09 07 02 0F 00 00 00
#8:2
#  SetDoorState 8 1
06 08 00 02 0F 08 01
#9:0
#  Hint 1
05 09 00 00 04 01
#9:0
#  SetDoorState 9 1
06 09 00 00 0F 09 01
#10:0
#  Hint 1
05 0A 00 00 04 01
#10:0
#  SetDoorState 10 1
06 0A 00 00 0F 0A 01
#11:0
#  Hint 1
05 0B 00 00 04 01
#11:0
#  SetDoorState 11 1
06 0B 00 00 0F 0B 01
#12:0
#  SetDoorState 12 1
06 0C 00 00 0F 0C 01
#13:0
#  Hint 5
05 0D 00 00 04 05
#13:0
#  Cmp MapVar0 1
0B 0D 00 00 0E 7D 00 01 00 00 00 04
#13:1
#  Set MapVar0 1
0A 0D 00 01 12 7D 00 01 00 00 00
#13:2
#  SetTexture -833 t3s1on
0F 0D 00 02 0B BF FC FF FF 74 33 73 31 6F 6E 00
#13:3
#  Exit
05 0D 00 03 01 00
#13:4
#  Set MapVar0 0
0A 0D 00 04 12 7D 00 00 00 00 00
#13:5
#  SetTexture -833 t3s1off
10 0D 00 05 0B BF FC FF FF 74 33 73 31 6F 66 66 00
#14:0
#  Hint 5
05 0E 00 00 04 05
#14:0
#  Cmp MapVar3 1
0B 0E 00 00 0E 80 00 01 00 00 00 06
#14:1
#  Set MapVar1 1
0A 0E 00 01 12 7E 00 01 00 00 00
#14:2
#  Cmp MapVar2 1
0B 0E 00 02 0E 7F 00 01 00 00 00 04
#14:3
#  Exit
05 0E 00 03 01 00
#14:4
#  Set MapVar3 1
0A 0E 00 04 12 80 00 01 00 00 00
#14:5
#  StatusText 7
08 0E 00 05 1D 07 00 00 00
#14:6
#  Exit
05 0E 00 06 01 00
#15:0
#  Hint 5
05 0F 00 00 04 05
#15:0
#  Cmp MapVar3 1
0B 0F 00 00 0E 80 00 01 00 00 00 06
#15:1
#  Set MapVar2 1
0A 0F 00 01 12 7F 00 01 00 00 00
#15:2
#  Cmp MapVar1 1
0B 0F 00 02 0E 7E 00 01 00 00 00 04
#15:3
#  Exit
05 0F 00 03 01 00
#15:4
#  Set MapVar3 1
0A 0F 00 04 12 80 00 01 00 00 00
#15:5
#  StatusText 7
08 0F 00 05 1D 07 00 00 00
#15:6
#  Exit
05 0F 00 06 01 00
#16:0
#  Hint 5
05 10 00 00 04 05
#16:0
#  Cmp MapVar6 1
0B 10 00 00 0E 83 00 01 00 00 00 06
#16:1
#  Set MapVar4 1
0A 10 00 01 12 81 00 01 00 00 00
#16:2
#  Cmp MapVar5 1
0B 10 00 02 0E 82 00 01 00 00 00 04
#16:3
#  Exit
05 10 00 03 01 00
#16:4
#  Set MapVar6 1
0A 10 00 04 12 83 00 01 00 00 00
#16:5
#  StatusText 11
08 10 00 05 1D 0B 00 00 00
#16:6
#  Exit
05 10 00 06 01 00
#17:0
#  Hint 5
05 11 00 00 04 05
#17:0
#  Cmp MapVar6 1
0B 11 00 00 0E 83 00 01 00 00 00 06
#17:1
#  Set MapVar5 1
0A 11 00 01 12 82 00 01 00 00 00
#17:2
#  Cmp MapVar4 1
0B 11 00 02 0E 81 00 01 00 00 00 04
#17:3
#  Exit
05 11 00 03 01 00
#17:4
#  Set MapVar6 1
0A 11 00 04 12 83 00 01 00 00 00
#17:5
#  StatusText 11
08 11 00 05 1D 0B 00 00 00
#17:6
#  Exit
05 11 00 06 01 00
#18:0
#  Hint 5
05 12 00 00 04 05
#18:0
#  Cmp MapVar9 1
0B 12 00 00 0E 86 00 01 00 00 00 06
#18:1
#  Set MapVar7 1
0A 12 00 01 12 84 00 01 00 00 00
#18:2
#  Cmp MapVar8 1
0B 12 00 02 0E 85 00 01 00 00 00 04
#18:3
#  Exit
05 12 00 03 01 00
#18:4
#  Set MapVar9 1
0A 12 00 04 12 86 00 01 00 00 00
#18:5
#  StatusText 12
08 12 00 05 1D 0C 00 00 00
#18:6
#  Exit
05 12 00 06 01 00
#19:0
#  Hint 5
05 13 00 00 04 05
#19:0
#  Cmp MapVar9 1
0B 13 00 00 0E 86 00 01 00 00 00 06
#19:1
#  Set MapVar8 1
0A 13 00 01 12 85 00 01 00 00 00
#19:2
#  Cmp MapVar7 1
0B 13 00 02 0E 84 00 01 00 00 00 04
#19:3
#  Exit
05 13 00 03 01 00
#19:4
#  Set MapVar9 1
0A 13 00 04 12 86 00 01 00 00 00
#19:5
#  StatusText 12
08 13 00 05 1D 0C 00 00 00
#19:6
#  Exit
05 13 00 06 01 00
#20:0
#  Hint 5
05 14 00 00 04 05
#20:0
#  Cmp MapVar12 1
0B 14 00 00 0E 89 00 01 00 00 00 06
#20:1
#  Set MapVar10 1
0A 14 00 01 12 87 00 01 00 00 00
#20:2
#  Cmp MapVar11 1
0B 14 00 02 0E 88 00 01 00 00 00 04
#20:3
#  Exit
05 14 00 03 01 00
#20:4
#  Set MapVar12 1
0A 14 00 04 12 89 00 01 00 00 00
#20:5
#  StatusText 7
08 14 00 05 1D 07 00 00 00
#20:6
#  Exit
05 14 00 06 01 00
#21:0
#  Hint 5
05 15 00 00 04 05
#21:0
#  Cmp MapVar12 1
0B 15 00 00 0E 89 00 01 00 00 00 06
#21:1
#  Set MapVar11 1
0A 15 00 01 12 88 00 01 00 00 00
#21:2
#  Cmp MapVar10 1
0B 15 00 02 0E 87 00 01 00 00 00 04
#21:3
#  Exit
05 15 00 03 01 00
#21:4
#  Set MapVar12 1
0A 15 00 04 12 89 00 01 00 00 00
#21:5
#  StatusText 7
08 15 00 05 1D 07 00 00 00
#21:6
#  Exit
05 15 00 06 01 00
#22:0
#  Hint 5
05 16 00 00 04 05
#22:0
#  Cmp MapVar15 1
0B 16 00 00 0E 8C 00 01 00 00 00 08
#22:1
#  CastSpell 2 0 2 -400 3072 190 -1664 4416 120
1F 16 00 01 15 02 00 02 70 FE FF FF 00 0C 00 00 BE 00 00 00 80 F9 FF FF 40 11 00 00 78 00 00 00
#22:2
#  CastSpell 13 0 2 -8 3456 120 -1664 4416 120
1F 16 00 02 15 0D 00 02 F8 FF FF FF 80 0D 00 00 78 00 00 00 80 F9 FF FF 40 11 00 00 78 00 00 00
#22:3
#  Set MapVar13 1
0A 16 00 03 12 8A 00 01 00 00 00
#22:4
#  Cmp MapVar14 1
0B 16 00 04 0E 8B 00 01 00 00 00 06
#22:5
#  Exit
05 16 00 05 01 00
#22:6
#  Set MapVar15 1
0A 16 00 06 12 8C 00 01 00 00 00
#22:7
#  StatusText 11
08 16 00 07 1D 0B 00 00 00
#22:8
#  Exit
05 16 00 08 01 00
#23:0
#  Hint 5
05 17 00 00 04 05
#23:0
#  Cmp MapVar15 1
0B 17 00 00 0E 8C 00 01 00 00 00 08
#23:1
#  CastSpell 2 0 2 -1776 3072 120 -384 4416 120
1F 17 00 01 15 02 00 02 10 F9 FF FF 00 0C 00 00 78 00 00 00 80 FE FF FF 40 11 00 00 78 00 00 00
#23:2
#  CastSpell 13 0 2 -2040 3456 120 -384 4416 120
1F 17 00 02 15 0D 00 02 08 F8 FF FF 80 0D 00 00 78 00 00 00 80 FE FF FF 40 11 00 00 78 00 00 00
#23:3
#  Set MapVar14 1
0A 17 00 03 12 8B 00 01 00 00 00
#23:4
#  Cmp MapVar13 1
0B 17 00 04 0E 8A 00 01 00 00 00 06
#23:5
#  Exit
05 17 00 05 01 00
#23:6
#  Set MapVar15 1
0A 17 00 06 12 8C 00 01 00 00 00
#23:7
#  StatusText 11
08 17 00 07 1D 0B 00 00 00
#23:8
#  Exit
05 17 00 08 01 00
#24:0
#  Hint 5
05 18 00 00 04 05
#24:0
#  Cmp MapVar3 1
0B 18 00 00 0E 80 00 01 00 00 00 02
#24:1
#  Exit
05 18 00 01 01 00
#24:2
#  Cmp MapVar6 1
0B 18 00 02 0E 83 00 01 00 00 00 04
#24:3
#  Exit
05 18 00 03 01 00
#24:4
#  Cmp MapVar9 1
0B 18 00 04 0E 86 00 01 00 00 00 06
#24:5
#  Exit
05 18 00 05 01 00
#24:6
#  Cmp MapVar12 1
0B 18 00 06 0E 89 00 01 00 00 00 08
#24:7
#  Exit
05 18 00 07 01 00
#24:8
#  Cmp MapVar15 1
0B 18 00 08 0E 8C 00 01 00 00 00 0A
#24:9
#  Exit
05 18 00 09 01 00
#24:10
#  StatusText 12
08 18 00 0A 1D 0C 00 00 00
#24:11
#  FaceExpression 5 5
06 18 00 0B 08 05 05
#24:12
#  Set WaterResBonus 15
0A 18 00 0C 12 3B 00 0F 00 00 00
#24:13
#  Cmp MapVar16 1
0B 18 00 0D 0E 8D 00 01 00 00 00 13
#24:14
#  StatusText 13
08 18 00 0E 1D 0D 00 00 00
#24:15
#  Set MapVar16 1
0A 18 00 0F 12 8D 00 01 00 00 00
#24:16
#  SetTexture -1079 mystryb
10 18 00 10 0B C9 FB FF FF 6D 79 73 74 72 79 62 00
#24:17
#  SummonMonsters 3 1 1 2688 3968 1 0 0
1B 18 00 11 13 03 01 01 80 0A 00 00 80 0F 00 00 01 00 00 00 00 00 00 00 00 00 00 00
#24:18
#  MoveToMap 2179 4314 1 0 0.
22 18 00 12 06 83 08 00 00 DA 10 00 00 01 00 00 00 01 00 00 00 00 00 00 00 00 00 00 00 00 00 00 30 2E 00
#24:19
#  Exit
05 18 00 13 01 00
#25:0
#  Hint 5
05 19 00 00 04 05
#25:0
#  StatusText 10
08 19 00 00 1D 0A 00 00 00
#25:1
#  CastSpell 15 0 3 -1024 3840 120 -1024 2816 120
1F 19 00 01 15 0F 00 03 00 FC FF FF 00 0F 00 00 78 00 00 00 00 FC FF FF 00 0B 00 00 78 00 00 00
#25:2
#  CastSpell 15 0 3 -1024 3840 120 -1024 4864 120
1F 19 00 02 15 0F 00 03 00 FC FF FF 00 0F 00 00 78 00 00 00 00 FC FF FF 00 13 00 00 78 00 00 00
#25:3
#  CastSpell 15 0 3 -1024 3840 120 0 3480 120
1F 19 00 03 15 0F 00 03 00 FC FF FF 00 0F 00 00 78 00 00 00 00 00 00 00 98 0D 00 00 78 00 00 00
#25:4
#  CastSpell 15 0 3 -1024 3840 120 -2048 3480 120
1F 19 00 04 15 0F 00 03 00 FC FF FF 00 0F 00 00 78 00 00 00 00 F8 FF FF 98 0D 00 00 78 00 00 00
#25:5
#  CastSpell 15 0 3 -1024 3840 120 -256 4608 120
1F 19 00 05 15 0F 00 03 00 FC FF FF 00 0F 00 00 78 00 00 00 00 FF FF FF 00 12 00 00 78 00 00 00
#25:6
#  CastSpell 15 0 3 -1024 3840 120 -256 3072 120
1F 19 00 06 15 0F 00 03 00 FC FF FF 00 0F 00 00 78 00 00 00 00 FF FF FF 00 0C 00 00 78 00 00 00
#25:7
#  CastSpell 15 0 3 -1024 3840 120 -1792 3072 120
1F 19 00 07 15 0F 00 03 00 FC FF FF 00 0F 00 00 78 00 00 00 00 F9 FF FF 00 0C 00 00 78 00 00 00
#25:8
#  CastSpell 15 0 3 -1024 3840 120 -1792 4608 120
1F 19 00 08 15 0F 00 03 00 FC FF FF 00 0F 00 00 78 00 00 00 00 F9 FF FF 00 12 00 00 78 00 00 00
#25:9
#  Set MapVar3 0
0A 19 00 09 12 80 00 00 00 00 00
#25:10
#  Set MapVar6 0
0A 19 00 0A 12 83 00 00 00 00 00
#25:11
#  Set MapVar9 0
0A 19 00 0B 12 86 00 00 00 00 00
#25:12
#  Set MapVar12 0
0A 19 00 0C 12 89 00 00 00 00 00
#25:13
#  Set MapVar15 0
0A 19 00 0D 12 8C 00 00 00 00 00
#26:0
#  Cmp MapVar16 1
0B 1A 00 00 0E 8D 00 01 00 00 00 02
#26:1
#  Exit
05 1A 00 01 01 00
#26:2
#  MoveToMap 8832 -4992 87 0 0.
22 1A 00 02 06 80 22 00 00 80 EC FF FF 57 00 00 00 01 00 00 00 00 00 00 00 00 00 00 00 00 00 00 30 2E 00
#31:0
#  Hint 14
05 1F 00 00 04 0E
#31:0
#  OpenChest 1
05 1F 00 00 07 01
#32:0
#  Hint 3
05 20 00 00 04 03
#32:0
#  DamagePlayer 6 0 16
0A 20 00 00 09 06 00 10 00 00 00
#32:1
#  DamagePlayer 6 0 11
0A 20 00 01 09 06 00 0B 00 00 00
#34:0
#  Hint 5
05 22 00 00 04 05
#34:0
#  CastSpell 35 0 2 -1632 2544 120 -1632 768 120
1F 22 00 00 15 23 00 02 A0 F9 FF FF F0 09 00 00 78 00 00 00 A0 F9 FF FF 00 03 00 00 78 00 00 00
#34:1
#  StatusText 10
08 22 00 01 1D 0A 00 00 00
#35:0
#  Hint 5
05 23 00 00 04 05
#35:0
#  CastSpell 35 0 3 768 -1528 120 768 -1280 120
1F 23 00 00 15 23 00 03 00 03 00 00 08 FA FF FF 78 00 00 00 00 03 00 00 00 FB FF FF 78 00 00 00
#35:1
#  StatusText 10
08 23 00 01 1D 0A 00 00 00
#36:0
#  Hint 4
05 24 00 00 04 04
#36:0
#  CastSpell 41 0 8 1728 1152 240 2176 1152 32
1F 24 00 00 15 29 00 08 C0 06 00 00 80 04 00 00 F0 00 00 00 80 08 00 00 80 04 00 00 20 00 00 00
#36:1
#  StatusText 10
08 24 00 01 1D 0A 00 00 00
#39:0
#  Hint 5
05 27 00 00 04 05
#39:0
#  CastSpell 15 0 13 2432 3576 120 2432 2824 120
1F 27 00 00 15 0F 00 0D 80 09 00 00 F8 0D 00 00 78 00 00 00 80 09 00 00 08 0B 00 00 78 00 00 00
#39:1
#  StatusText 10
08 27 00 01 1D 0A 00 00 00
#40:0
#  Hint 5
05 28 00 00 04 05
#40:0
#  CastSpell 15 1 10 2056 3200 120 2800 3200 120
1F 28 00 00 15 0F 01 0A 08 08 00 00 80 0C 00 00 78 00 00 00 F0 0A 00 00 80 0C 00 00 78 00 00 00
#40:1
#  StatusText 10
08 28 00 01 1D 0A 00 00 00
#41:0
#  Hint 5
05 29 00 00 04 05
#41:0
#  CastSpell 15 0 13 2432 2824 120 2432 3576 120
1F 29 00 00 15 0F 00 0D 80 09 00 00 08 0B 00 00 78 00 00 00 80 09 00 00 F8 0D 00 00 78 00 00 00
#41:1
#  StatusText 10
08 29 00 01 1D 0A 00 00 00
#42:0
#  Hint 5
05 2A 00 00 04 05
#42:0
#  CastSpell 15 1 10 2800 3200 120 2056 3200 120
1F 2A 00 00 15 0F 01 0A F0 0A 00 00 80 0C 00 00 78 00 00 00 08 08 00 00 80 0C 00 00 78 00 00 00
#42:1
#  StatusText 10
08 2A 00 01 1D 0A 00 00 00
#43:0
#  OnTimer 0 0 0 0 0 0 9
0E 2B 00 00 1F 00 00 00 00 00 00 09 00 00 00
#43:1
#  Cmp MapVar3 1
0B 2B 00 01 0E 80 00 01 00 00 00 04
#43:2
#  CastSpell 2 0 2 -1776 3072 190 -400 3072 120
1F 2B 00 02 15 02 00 02 10 F9 FF FF 00 0C 00 00 BE 00 00 00 70 FE FF FF 00 0C 00 00 78 00 00 00
#43:3
#  CastSpell 2 0 2 -400 3072 190 -1648 3072 120
1F 2B 00 03 15 02 00 02 70 FE FF FF 00 0C 00 00 BE 00 00 00 90 F9 FF FF 00 0C 00 00 78 00 00 00
#43:4
#  Exit
05 2B 00 04 01 00
#44:0
#  OnTimer 0 0 0 0 0 0 8
0E 2C 00 00 1F 00 00 00 00 00 00 08 00 00 00
#44:1
#  Cmp MapVar6 1
0B 2C 00 01 0E 83 00 01 00 00 00 04
#44:2
#  CastSpell 13 0 2 -2040 3456 120 -8 3456 120
1F 2C 00 02 15 0D 00 02 08 F8 FF FF 80 0D 00 00 78 00 00 00 F8 FF FF FF 80 0D 00 00 78 00 00 00
#44:3
#  CastSpell 13 0 2 -8 3456 120 -2040 3456 120
1F 2C 00 03 15 0D 00 02 F8 FF FF FF 80 0D 00 00 78 00 00 00 08 F8 FF FF 80 0D 00 00 78 00 00 00
#44:4
#  Exit
05 2C 00 04 01 00
#45:0
#  OnTimer 0 0 0 0 0 0 7
0E 2D 00 00 1F 00 00 00 00 00 00 07 00 00 00
#45:1
#  Cmp MapVar9 1
0B 2D 00 01 0E 86 00 01 00 00 00 04
#45:2
#  CastSpell 24 0 2 -2040 3840 120 -8 3840 120
1F 2D 00 02 15 18 00 02 08 F8 FF FF 00 0F 00 00 78 00 00 00 F8 FF FF FF 00 0F 00 00 78 00 00 00
#45:3
#  CastSpell 24 0 2 -8 3840 120 -2040 3840 120
1F 2D 00 03 15 18 00 02 F8 FF FF FF 00 0F 00 00 78 00 00 00 08 F8 FF FF 00 0F 00 00 78 00 00 00
#45:4
#  Exit
05 2D 00 04 01 00
#46:0
#  OnTimer 0 0 0 0 0 0 6
0E 2E 00 00 1F 00 00 00 00 00 00 06 00 00 00
#46:1
#  Cmp MapVar12 1
0B 2E 00 01 0E 89 00 01 00 00 00 04
#46:2
#  CastSpell 35 0 2 -2040 4096 120 -8 4096 120
1F 2E 00 02 15 23 00 02 08 F8 FF FF 00 10 00 00 78 00 00 00 F8 FF FF FF 00 10 00 00 78 00 00 00
#46:3
#  CastSpell 35 0 2 -8 4096 120 -2040 4096 120
1F 2E 00 03 15 23 00 02 F8 FF FF FF 00 10 00 00 78 00 00 00 08 F8 FF FF 00 10 00 00 78 00 00 00
#46:4
#  Exit
05 2E 00 04 01 00
#53:0
#  Hint 8
05 35 00 00 04 08
#53:0
#  MoveToMap 15218 -14862 161 0 outc1.odm
29 35 00 00 06 72 3B 00 00 F2 C5 FF FF A1 00 00 00 00 00 00 00 00 00 00 00 00 00 00 00 00 00 06 6F 75 74 63 31 2E 6F 64 6D 00
#54:0
#  Hint 14
05 36 00 00 04 0E
#54:0
#  OpenChest 2
05 36 00 00 07 02
#55:0
#  Hint 14
05 37 00 00 04 0E
#55:0
#  OpenChest 3
05 37 00 00 07 03
#56:0
#  Hint 14
05 38 00 00 04 0E
#56:0
#  OpenChest 4
05 38 00 00 07 04
#57:0
#  Hint 14
05 39 00 00 04 0E
#57:0
#  OpenChest 5
05 39 00 00 07 05
#58:0
#  Hint 14
05 3A 00 00 04 0E
#58:0
#  OpenChest 6
05 3A 00 00 07 06
#61:0
#  Hint 16
05 3D 00 00 04 10
#61:0
#  SetMessage 18
08 3D 00 00 1E 12 00 00 00
#61:1
#  Question 21 19 20
11 3D 00 01 1A 15 00 00 00 13 00 00 00 14 00 00 00 04
#61:2
#  StatusText 22
08 3D 00 02 1D 16 00 00 00
#61:3
#  Exit
05 3D 00 03 01 00
#61:4
#  SetDoorState 61 1
06 3D 00 04 0F 3D 01
#62:0
#  Hint 16
05 3E 00 00 04 10
#62:0
#  SetMessage 23
08 3E 00 00 1E 17 00 00 00
#62:1
#  Question 21 24 25
11 3E 00 01 1A 15 00 00 00 18 00 00 00 19 00 00 00 04
#62:2
#  StatusText 22
08 3E 00 02 1D 16 00 00 00
#62:3
#  Exit
05 3E 00 03 01 00
#62:4
#  SetDoorState 62 1
06 3E 00 04 0F 3E 01
#63:0
#  Hint 16
05 3F 00 00 04 10
#63:0
#  SetMessage 26
08 3F 00 00 1E 1A 00 00 00
#63:1
#  Question 21 27 27
11 3F 00 01 1A 15 00 00 00 1B 00 00 00 1B 00 00 00 04
#63:2
#  StatusText 22
08 3F 00 02 1D 16 00 00 00
#63:3
#  Exit
05 3F 00 03 01 00
#63:4
#  SetDoorState 63 1
06 3F 00 04 0F 3F 01
#64:0
#  Hint 16
05 40 00 00 04 10
#64:0
#  SetMessage 28
08 40 00 00 1E 1C 00 00 00
#64:1
#  Question 21 29 30
11 40 00 01 1A 15 00 00 00 1D 00 00 00 1E 00 00 00 04
#64:2
#  StatusText 22
08 40 00 02 1D 16 00 00 00
#64:3
#  Exit
05 40 00 03 01 00
#64:4
#  SetDoorState 64 1
06 40 00 04 0F 40 01
#65:0
#  MoveToMap 0 0 0 0 6d03.blv
28 41 00 00 06 00 00 00 00 00 00 00 00 00 00 00 00 00 00 00 00 00 00 00 00 00 00 00 00 00 00 00 36 64 30 33 2E 62 6C 76 00
#65:1
#  Subtract Food 5
0A 41 00 01 11 17 00 05 00 00 00
#66:0
#  MoveToMap 1408 -1664 1 0 0.
22 42 00 00 06 80 05 00 00 80 F9 FF FF 01 00 00 00 00 00 00 00 00 00 00 00 00 00 00 00 00 00 00 30 2E 00
#67:0
#  MoveToMap 0 0 0 0 6d06.blv
28 43 00 00 06 00 00 00 00 00 00 00 00 00 00 00 00 00 00 00 00 00 00 00 00 00 00 00 00 00 00 00 36 64 30 36 2E 62 6C 76 00
#67:1
#  Subtract Food 5
0A 43 00 01 11 17 00 05 00 00 00
#68:0
#  MoveToMap 11407 18074 1 0 outc2.odm
29 44 00 00 06 8F 2C 00 00 9A 46 00 00 01 00 00 00 00 00 00 00 00 00 00 00 00 00 00 00 00 00 00 6F 75 74 63 32 2E 6F 64 6D 00
#68:1
#  Subtract Food 5
0A 44 00 01 11 17 00 05 00 00 00
#69:0
#  Hint 31
05 45 00 00 04 1F
#69:0
#  Exit
05 45 00 00 01 00
#70:0
#  Hint 32
05 46 00 00 04 20
#70:0
#  Cmp MapVar50 1
0B 46 00 00 0E AF 00 01 00 00 00 04
#70:1
#  Set MapVar50 1
0A 46 00 01 12 AF 00 01 00 00 00
#70:2
#  Add FoodAddRandom 4
0A 46 00 02 10 18 00 04 00 00 00
#70:3
#  Exit
05 46 00 03 01 00
#70:4
#  StatusText 33
08 46 00 04 1D 21 00 00 00
#71:0
#  Hint 32
05 47 00 00 04 20
#71:0
#  Cmp MapVar51 1
0B 47 00 00 0E B0 00 01 00 00 00 04
#71:1
#  Set MapVar51 1
0A 47 00 01 12 B0 00 01 00 00 00
#71:2
#  Add FoodAddRandom 4
0A 47 00 02 10 18 00 04 00 00 00
#71:3
#  Exit
05 47 00 03 01 00
#71:4
#  StatusText 33
08 47 00 04 1D 21 00 00 00
#72:0
#  Hint 32
05 48 00 00 04 20
#72:0
#  Cmp MapVar52 1
0B 48 00 00 0E B1 00 01 00 00 00 04
#72:1
#  Set MapVar52 1
0A 48 00 01 12 B1 00 01 00 00 00
#72:2
#  Add FoodAddRandom 4
0A 48 00 02 10 18 00 04 00 00 00
#72:3
#  Exit
05 48 00 03 01 00
#72:4
#  StatusText 33
08 48 00 04 1D 21 00 00 00
#73:0
#  Hint 32
05 49 00 00 04 20
#73:0
#  Cmp MapVar53 1
0B 49 00 00 0E B2 00 01 00 00 00 03
#73:1
#  Set MapVar53 1
0A 49 00 01 12 B2 00 01 00 00 00
#73:2
#  Add FoodAddRandom 3
0A 49 00 02 10 18 00 03 00 00 00
#73:3
#  Exit
05 49 00 03 01 00
#73:4
#  StatusText 33
08 49 00 04 1D 21 00 00 00
#74:0
#  Hint 17
05 4A 00 00 04 11
#74:0
#  OpenChest 7
05 4A 00 00 07 07
#75:0
#  Hint 17
05 4B 00 00 04 11
#75:0
#  OpenChest 8
05 4B 00 00 07 08
#76:0
#  Hint 17
05 4C 00 00 04 11
#76:0
#  OpenChest 9
05 4C 00 00 07 09
#77:0
#  Hint 17
05 4D 00 00 04 11
#77:0
#  OpenChest 10
05 4D 00 00 07 0A
#78:0
#  Hint 17
05 4E 00 00 04 11
#78:0
#  OpenChest 11
05 4E 00 00 07 0B
#79:0
#  Hint 17
05 4F 00 00 04 11
#79:0
#  OpenChest 12
05 4F 00 00 07 0C
#80:0
#  Hint 17
05 50 00 00 04 11
#80:0
#  StatusText 33
08 50 00 00 1D 21 00 00 00
