#1:0
#  Hint 1
05 01 00 00 04 01
#1:0
#  MazeInfo 10
05 01 00 00 05 0A
#1:0
#  SetDoorState 1 1
06 01 00 00 0F 01 01
#1:1
#  SetTexture -635 t1swbu
0F 01 00 01 0B 85 FD FF FF 74 31 73 77 62 75 00
#1:2
#  Set MapVar2 1
0A 01 00 02 12 7F 00 01 00 00 00
#2:0
#  SetDoorState 2 1
06 02 00 00 0F 02 01
#3:0
#  Hint 1
05 03 00 00 04 01
#3:0
#  SetDoorState 3 2
06 03 00 00 0F 03 02
#3:1
#  Set MapVar1 1
0A 03 00 01 12 7E 00 01 00 00 00
#3:2
#  SetTexture -643 t1swbu
0F 03 00 02 0B 7D FD FF FF 74 31 73 77 62 75 00
#3:3
#  SetTexture -639 t1swbu
0F 03 00 03 0B 81 FD FF FF 74 31 73 77 62 75 00
#4:0
#  Hint 1
05 04 00 00 04 01
#4:0
#  SetDoorState 4 2
06 04 00 00 0F 04 02
#4:1
#  SetTexture -647 t1swbu
0F 04 00 01 0B 79 FD FF FF 74 31 73 77 62 75 00
#4:2
#  Set MapVar3 1
0A 04 00 02 12 80 00 01 00 00 00
#5:0
#  SetDoorState 1 0
06 05 00 00 0F 01 00
#5:1
#  SetTexture -635 t1swbd
0F 05 00 01 0B 85 FD FF FF 74 31 73 77 62 64 00
#5:2
#  Set MapVar4 1
0A 05 00 02 12 81 00 01 00 00 00
#6:0
#  Hint 2
05 06 00 00 04 02
#6:0
#  OpenChest 1
05 06 00 00 07 01
#7:0
#  Hint 3
05 07 00 00 04 03
#7:0
#  OpenChest 2
05 07 00 00 07 02
#8:0
#  Hint 3
05 08 00 00 04 03
#8:0
#  OpenChest 3
05 08 00 00 07 03
#9:0
#  Hint 3
05 09 00 00 04 03
#9:0
#  OpenChest 4
05 09 00 00 07 04
#10:0
#  Hint 3
05 0A 00 00 04 03
#10:0
#  OpenChest 5
05 0A 00 00 07 05
#11:0
#  Hint 2
05 0B 00 00 04 02
#11:0
#  Cmp MapVar5 1
0B 0B 00 00 0E 82 00 01 00 00 00 03
#11:1
#  DamagePlayer 5 1 200
0A 0B 00 01 09 05 01 C8 00 00 00
#11:2
#  Set MapVar5 1
0A 0B 00 02 12 82 00 01 00 00 00
#11:3
#  OpenChest 6
05 0B 00 03 07 06
#12:0
#  Hint 2
05 0C 00 00 04 02
#12:0
#  Cmp MapVar6 1
0B 0C 00 00 0E 83 00 01 00 00 00 03
#12:1
#  DamagePlayer 5 2 200
0A 0C 00 01 09 05 02 C8 00 00 00
#12:2
#  Set MapVar6 1
0A 0C 00 02 12 83 00 01 00 00 00
#12:3
#  OpenChest 7
05 0C 00 03 07 07
#13:0
#  Hint 3
05 0D 00 00 04 03
#13:0
#  OpenChest 8
05 0D 00 00 07 08
#14:0
#  Hint 3
05 0E 00 00 04 03
#14:0
#  OpenChest 9
05 0E 00 00 07 09
#16:0
#  DamagePlayer 6 2 40
0A 10 00 00 09 06 02 28 00 00 00
#17:0
#  DamagePlayer 6 1 40
0A 11 00 00 09 06 01 28 00 00 00
#18:0
#  DamagePlayer 6 1 50
0A 12 00 00 09 06 01 32 00 00 00
#19:0
#  DamagePlayer 6 3 50
0A 13 00 00 09 06 03 32 00 00 00
#20:0
#  DamagePlayer 6 2 50
0A 14 00 00 09 06 02 32 00 00 00
#21:0
#  StatusText 6
08 15 00 00 1D 06 00 00 00
#21:1
#  MoveToMap 3264 -1336 513 0 0.
22 15 00 01 06 C0 0C 00 00 C8 FA FF FF 01 02 00 00 C0 00 00 00 00 00 00 00 00 00 00 00 00 00 00 30 2E 00
#22:0
#  OnTimer 0 0 0 0 0 0 5
0E 16 00 00 1F 00 00 00 00 00 00 05 00 00 00
#22:1
#  Cmp MapVar1 1
0B 16 00 01 0E 7E 00 01 00 00 00 03
#22:2
#  Exit
05 16 00 02 01 00
#22:3
#  SetTexture -643 t1swbd
0F 16 00 03 0B 7D FD FF FF 74 31 73 77 62 64 00
#22:4
#  SetTexture -639 t1swbd
0F 16 00 04 0B 81 FD FF FF 74 31 73 77 62 64 00
#23:0
#  OnLoadMap
05 17 00 00 25 00
#23:1
#  Cmp MapVar2 1
0B 17 00 01 0E 7F 00 01 00 00 00 03
#23:2
#  GoTo
05 17 00 02 24 04
#23:3
#  SetTexture -635 t1swbu
0F 17 00 03 0B 85 FD FF FF 74 31 73 77 62 75 00
#23:4
#  Cmp MapVar3 1
0B 17 00 04 0E 80 00 01 00 00 00 06
#23:5
#  GoTo
05 17 00 05 24 07
#23:6
#  SetTexture -647 t1swbu
0F 17 00 06 0B 79 FD FF FF 74 31 73 77 62 75 00
#23:7
#  Cmp MapVar4 1
0B 17 00 07 0E 81 00 01 00 00 00 09
#23:8
#  Exit
05 17 00 08 01 00
#23:9
#  SetTexture -635 t1swbd
0F 17 00 09 0B 85 FD FF FF 74 31 73 77 62 64 00
#24:0
#  OnTimer 0 0 0 0 0 0 5
0E 18 00 00 1F 00 00 00 00 00 00 05 00 00 00
#24:1
#  Cmp MapVar3 1
0B 18 00 01 0E 80 00 01 00 00 00 03
#24:2
#  CastSpell 32 0 7 -3306 -1285 640 -2000 -1285 640
1F 18 00 02 15 20 00 07 16 F3 FF FF FB FA FF FF 80 02 00 00 30 F8 FF FF FB FA FF FF 80 02 00 00
#24:3
#  Exit
05 18 00 03 01 00
#25:0
#  Hint 9
05 19 00 00 04 09
#25:0
#  Cmp QBits 1227
0B 19 00 00 0E 10 00 CB 04 00 00 04
#25:1
#  Set QBits 1227
0A 19 00 01 12 10 00 CB 04 00 00
#25:2
#  Set QBits 1702
0A 19 00 02 12 10 00 A6 06 00 00
#25:3
#  SpeakNPC 893
08 19 00 03 16 7D 03 00 00
#25:4
#  Exit
05 19 00 04 01 00
#50:0
#  Hint 4
05 32 00 00 04 04
#50:0
#  MoveToMap 9230 7102 64 0 outb2.odm
29 32 00 00 06 0E 24 00 00 BE 1B 00 00 40 00 00 00 00 02 00 00 00 00 00 00 00 00 00 00 00 00 06 6F 75 74 62 32 2E 6F 64 6D 00
