#2:0
#  Hint 3
05 02 00 00 04 03
#2:0
#  MazeInfo 1
05 02 00 00 05 01
#2:0
#  EnterHouse 24
08 02 00 00 02 18 00 00 00
#3:0
#  Hint 3
05 03 00 00 04 03
#3:0
#  Exit
05 03 00 00 01 00
#3:1
#  EnterHouse 24
08 03 00 01 02 18 00 00 00
#4:0
#  Hint 17
05 04 00 00 04 11
#4:0
#  EnterHouse 64
08 04 00 00 02 40 00 00 00
#5:0
#  Hint 17
05 05 00 00 04 11
#5:0
#  Exit
05 05 00 00 01 00
#5:1
#  EnterHouse 64
08 05 00 01 02 40 00 00 00
#6:0
#  Hint 33
05 06 00 00 04 21
#6:0
#  EnterHouse 101
08 06 00 00 02 65 00 00 00
#7:0
#  Hint 33
05 07 00 00 04 21
#7:0
#  Exit
05 07 00 00 01 00
#7:1
#  EnterHouse 101
08 07 00 01 02 65 00 00 00
#8:0
#  Hint 49
05 08 00 00 04 31
#8:0
#  EnterHouse 471
08 08 00 00 02 D7 01 00 00
#9:0
#  Hint 49
05 09 00 00 04 31
#9:0
#  Exit
05 09 00 00 01 00
#9:1
#  EnterHouse 471
08 09 00 01 02 D7 01 00 00
#10:0
#  Hint 85
05 0A 00 00 04 55
#10:0
#  EnterHouse 1589
08 0A 00 00 02 35 06 00 00
#11:0
#  Hint 85
05 0B 00 00 04 55
#11:0
#  Exit
05 0B 00 00 01 00
#11:1
#  EnterHouse 1589
08 0B 00 01 02 35 06 00 00
#12:0
#  Hint 96
05 0C 00 00 04 60
#12:0
#  EnterHouse 264
08 0C 00 00 02 08 01 00 00
#13:0
#  Hint 96
05 0D 00 00 04 60
#13:0
#  Exit
05 0D 00 00 01 00
#13:1
#  EnterHouse 264
08 0D 00 01 02 08 01 00 00
#14:0
#  Hint 119
05 0E 00 00 04 77
#14:0
#  EnterHouse 132
08 0E 00 00 02 84 00 00 00
#15:0
#  Hint 119
05 0F 00 00 04 77
#15:0
#  Exit
05 0F 00 00 01 00
#15:1
#  EnterHouse 132
08 0F 00 01 02 84 00 00 00
#16:0
#  Hint 155
05 10 00 00 04 9B
#16:0
#  EnterHouse 336
08 10 00 00 02 50 01 00 00
#17:0
#  Hint 155
05 11 00 00 04 9B
#17:0
#  Exit
05 11 00 00 01 00
#17:1
#  EnterHouse 336
08 11 00 01 02 50 01 00 00
#18:0
#  Hint 169
05 12 00 00 04 A9
#18:0
#  EnterHouse 450
08 12 00 00 02 C2 01 00 00
#19:0
#  Hint 76
05 13 00 00 04 4C
#19:0
#  EnterHouse 332
08 13 00 00 02 4C 01 00 00
#40:0
#  Hint 5
05 28 00 00 04 05
#40:0
#  StatusText 5
08 28 00 00 1D 05 00 00 00
#40:1
#  Exit
05 28 00 01 01 00
#41:0
#  Hint 4
05 29 00 00 04 04
#41:0
#  StatusText 4
08 29 00 00 1D 04 00 00 00
#41:1
#  Exit
05 29 00 01 01 00
#42:0
#  Hint 168
05 2A 00 00 04 A8
#42:0
#  Cmp QBits 1201
0B 2A 00 00 0E 10 00 B1 04 00 00 03
#42:1
#  EnterHouse 1215
08 2A 00 01 02 BF 04 00 00
#42:2
#  Exit
05 2A 00 02 01 00
#42:3
#  EnterHouse 0
08 2A 00 03 02 00 00 00 00
#43:0
#  Hint 153
05 2B 00 00 04 99
#43:0
#  Cmp QBits 1114
0B 2B 00 00 0E 10 00 5A 04 00 00 10
#43:1
#  Cmp QBits 1119
0B 2B 00 01 0E 10 00 5F 04 00 00 03
#43:2
#  GoTo
05 2B 00 02 24 0D
#43:3
#  Cmp QBits 1700
0B 2B 00 03 0E 10 00 A4 06 00 00 05
#43:4
#  GoTo
05 2B 00 04 24 11
#43:5
#  MoveNPC 798 222
0C 2B 00 05 28 1E 03 00 00 DE 00 00 00
#43:6
#  Subtract QBits 1700
0A 2B 00 06 11 10 00 A4 06 00 00
#43:7
#  Subtract QBits 1119
0A 2B 00 07 11 10 00 5F 04 00 00
#43:8
#  SetMessage 13
08 2B 00 08 1E 0D 00 00 00
#43:9
#  ForPlayer 5
05 2B 00 09 23 05
#43:10
#  Add Experience 7500
0A 2B 00 0A 10 0D 00 4C 1D 00 00
#43:11
#  SetNPCTopic 798 0 1337
0D 2B 00 0B 27 1E 03 00 00 00 39 05 00 00
#43:12
#  SimpleMessage
05 2B 00 0C 21 00
#43:13
#  MoveToMap 0 0 0 335 0.
22 2B 00 0D 06 00 00 00 00 00 00 00 00 00 00 00 00 00 00 00 00 00 00 00 00 00 00 00 00 4F 01 02 30 2E 00
#43:14
#  EnterHouse 222
08 2B 00 0E 02 DE 00 00 00
#43:15
#  Exit
05 2B 00 0F 01 00
#43:16
#  Cmp QBits 1700
0B 2B 00 10 0E 10 00 A4 06 00 00 0D
#43:17
#  SetMessage 9
08 2B 00 11 1E 09 00 00 00
#43:18
#  SimpleMessage
05 2B 00 12 21 00
#44:0
#  Hint 58
05 2C 00 00 04 3A
#44:0
#  EnterHouse 497
08 2C 00 00 02 F1 01 00 00
#45:0
#  Hint 59
05 2D 00 00 04 3B
#45:0
#  EnterHouse 498
08 2D 00 00 02 F2 01 00 00
#46:0
#  Hint 4
05 2E 00 00 04 04
#46:0
#  EnterHouse 25
08 2E 00 00 02 19 00 00 00
#47:0
#  Hint 4
05 2F 00 00 04 04
#47:0
#  Exit
05 2F 00 00 01 00
#47:1
#  EnterHouse 25
08 2F 00 01 02 19 00 00 00
#48:0
#  Hint 21
05 30 00 00 04 15
#48:0
#  EnterHouse 68
08 30 00 00 02 44 00 00 00
#49:0
#  Hint 21
05 31 00 00 04 15
#49:0
#  Exit
05 31 00 00 01 00
#49:1
#  EnterHouse 68
08 31 00 01 02 44 00 00 00
#50:0
#  Hint 97
05 32 00 00 04 61
#50:0
#  EnterHouse 265
08 32 00 00 02 09 01 00 00
#51:0
#  Hint 97
05 33 00 00 04 61
#51:0
#  Exit
05 33 00 00 01 00
#51:1
#  EnterHouse 265
08 33 00 01 02 09 01 00 00
#52:0
#  Hint 127
05 34 00 00 04 7F
#52:0
#  EnterHouse 156
08 34 00 00 02 9C 00 00 00
#53:0
#  Hint 127
05 35 00 00 04 7F
#53:0
#  Exit
05 35 00 00 01 00
#53:1
#  EnterHouse 156
08 35 00 01 02 9C 00 00 00
#54:0
#  Hint 129
05 36 00 00 04 81
#54:0
#  EnterHouse 162
08 36 00 00 02 A2 00 00 00
#55:0
#  Hint 129
05 37 00 00 04 81
#55:0
#  Exit
05 37 00 00 01 00
#55:1
#  EnterHouse 162
08 37 00 01 02 A2 00 00 00
#56:0
#  Hint 131
05 38 00 00 04 83
#56:0
#  EnterHouse 168
08 38 00 00 02 A8 00 00 00
#57:0
#  Hint 131
05 39 00 00 04 83
#57:0
#  Exit
05 39 00 00 01 00
#57:1
#  EnterHouse 168
08 39 00 01 02 A8 00 00 00
#82:0
#  Hint 146
05 52 00 00 04 92
#82:0
#  EnterHouse 202
08 52 00 00 02 CA 00 00 00
#58:0
#  Hint 168
05 3A 00 00 04 A8
#58:0
#  EnterHouse 1225
08 3A 00 00 02 C9 04 00 00
#59:0
#  Hint 169
05 3B 00 00 04 A9
#59:0
#  EnterHouse 1240
08 3B 00 00 02 D8 04 00 00
#60:0
#  Hint 170
05 3C 00 00 04 AA
#60:0
#  EnterHouse 1255
08 3C 00 00 02 E7 04 00 00
#61:0
#  Hint 172
05 3D 00 00 04 AC
#61:0
#  EnterHouse 1285
08 3D 00 00 02 05 05 00 00
#62:0
#  Hint 173
05 3E 00 00 04 AD
#62:0
#  EnterHouse 1300
08 3E 00 00 02 14 05 00 00
#63:0
#  Hint 174
05 3F 00 00 04 AE
#63:0
#  EnterHouse 1313
08 3F 00 00 02 21 05 00 00
#64:0
#  Hint 175
05 40 00 00 04 AF
#64:0
#  EnterHouse 1325
08 40 00 00 02 2D 05 00 00
#65:0
#  Hint 178
05 41 00 00 04 B2
#65:0
#  EnterHouse 1359
08 41 00 00 02 4F 05 00 00
#66:0
#  Hint 179
05 42 00 00 04 B3
#66:0
#  EnterHouse 1371
08 42 00 00 02 5B 05 00 00
#67:0
#  Hint 180
05 43 00 00 04 B4
#67:0
#  EnterHouse 1382
08 43 00 00 02 66 05 00 00
#68:0
#  Hint 181
05 44 00 00 04 B5
#68:0
#  EnterHouse 1393
08 44 00 00 02 71 05 00 00
#69:0
#  Hint 183
05 45 00 00 04 B7
#69:0
#  EnterHouse 1412
08 45 00 00 02 84 05 00 00
#70:0
#  Hint 184
05 46 00 00 04 B8
#70:0
#  EnterHouse 1421
08 46 00 00 02 8D 05 00 00
#71:0
#  Hint 171
05 47 00 00 04 AB
#71:0
#  EnterHouse 1270
08 47 00 00 02 F6 04 00 00
#71:0
#  Hint 176
05 47 00 00 04 B0
#71:0
#  EnterHouse 1336
08 47 00 00 02 38 05 00 00
#72:0
#  Hint 177
05 48 00 00 04 B1
#72:0
#  EnterHouse 1348
08 48 00 00 02 44 05 00 00
#73:0
#  Hint 182
05 49 00 00 04 B6
#73:0
#  EnterHouse 1403
08 49 00 00 02 7B 05 00 00
#74:0
#  Hint 185
05 4A 00 00 04 B9
#74:0
#  EnterHouse 1429
08 4A 00 00 02 95 05 00 00
#75:0
#  Hint 186
05 4B 00 00 04 BA
#75:0
#  EnterHouse 1438
08 4B 00 00 02 9E 05 00 00
#83:0
#  Hint 1
05 53 00 00 04 01
#83:0
#  EnterHouse 1387
08 53 00 00 02 6B 05 00 00
#81:0
#  Hint 10
05 51 00 00 04 0A
#81:0
#  OpenChest 1
05 51 00 00 07 01
#76:0
#  Hint 10
05 4C 00 00 04 0A
#76:0
#  OpenChest 2
05 4C 00 00 07 02
#77:0
#  Hint 10
05 4D 00 00 04 0A
#77:0
#  OpenChest 3
05 4D 00 00 07 03
#78:0
#  Hint 10
05 4E 00 00 04 0A
#78:0
#  OpenChest 4
05 4E 00 00 07 04
#79:0
#  Hint 10
05 4F 00 00 04 0A
#79:0
#  OpenChest 5
05 4F 00 00 07 05
#80:0
#  Hint 10
05 50 00 00 04 0A
#80:0
#  OpenChest 6
05 50 00 00 07 06
#90:0
#  MoveToMap -130 -1408 1 425 6d03.blv
28 5A 00 00 06 7E FF FF FF 80 FA FF FF 01 00 00 00 00 02 00 00 00 00 00 00 00 00 00 00 A9 01 05 36 64 30 33 2E 62 6C 76 00
#90:1
#  Exit
05 5A 00 01 01 00
#90:2
#  EnterHouse 425
08 5A 00 02 02 A9 01 00 00
#91:0
#  MoveToMap 1664 -1896 1 430 6d05.blv
28 5B 00 00 06 80 06 00 00 98 F8 FF FF 01 00 00 00 00 04 00 00 00 00 00 00 00 00 00 00 AE 01 05 36 64 30 35 2E 62 6C 76 00
#91:1
#  Exit
05 5B 00 01 01 00
#91:2
#  EnterHouse 430
08 5B 00 02 02 AE 01 00 00
#92:0
#  MoveToMap 2716 -256 1 432 6d06.blv
28 5C 00 00 06 9C 0A 00 00 00 FF FF FF 01 00 00 00 00 04 00 00 00 00 00 00 00 00 00 00 B0 01 05 36 64 30 36 2E 62 6C 76 00
#92:1
#  Exit
05 5C 00 01 01 00
#92:2
#  EnterHouse 432
08 5C 00 02 02 B0 01 00 00
#93:0
#  MoveToMap 128 -151 1 440 6d11.blv
28 5D 00 00 06 80 00 00 00 69 FF FF FF 01 00 00 00 00 02 00 00 00 00 00 00 00 00 00 00 B8 01 05 36 64 31 31 2E 62 6C 76 00
#93:1
#  Exit
05 5D 00 01 01 00
#93:2
#  EnterHouse 440
08 5D 00 02 02 B8 01 00 00
#94:0
#  MoveToMap -15592 120 -191 418 6t1.blv
27 5E 00 00 06 18 C3 FF FF 78 00 00 00 41 FF FF FF 00 00 00 00 00 00 00 00 00 00 00 00 A2 01 05 36 74 31 2E 62 6C 76 00
#94:1
#  Exit
05 5E 00 01 01 00
#94:2
#  EnterHouse 418
08 5E 00 02 02 A2 01 00 00
#97:0
#  Hint 78
05 61 00 00 04 4E
#97:0
#  EnterHouse 334
08 61 00 00 02 4E 01 00 00
#100:0
#  Hint 15
05 64 00 00 04 0F
#100:0
#  Cmp SpeedBonus 10
0B 64 00 00 0E 1D 00 0A 00 00 00 05
#100:1
#  Set SpeedBonus 10
0A 64 00 01 12 1D 00 0A 00 00 00
#100:2
#  StatusText 6
08 64 00 02 1D 06 00 00 00
#100:3
#  Set AutonoteBits 408
0A 64 00 03 12 E1 00 98 01 00 00
#100:4
#  Exit
05 64 00 04 01 00
#100:5
#  StatusText 8
08 64 00 05 1D 08 00 00 00
#100:6
#  Exit
05 64 00 06 01 00
#101:0
#  Hint 15
05 65 00 00 04 0F
#101:0
#  Cmp AccuracyBonus 10
0B 65 00 00 0E 1E 00 0A 00 00 00 06
#101:1
#  Set AccuracyBonus 10
0A 65 00 01 12 1E 00 0A 00 00 00
#101:2
#  StatusText 16
08 65 00 02 1D 10 00 00 00
#101:3
#  Set AutonoteBits 407
0A 65 00 03 12 E1 00 97 01 00 00
#101:4
#  Exit
05 65 00 04 01 00
#101:5
#  StatusText 8
08 65 00 05 1D 08 00 00 00
#101:6
#  Exit
05 65 00 06 01 00
#102:0
#  Hint 15
05 66 00 00 04 0F
#102:0
#  Cmp MapVar24 1
0B 66 00 00 0E 95 00 01 00 00 00 03
#102:1
#  StatusText 8
08 66 00 01 1D 08 00 00 00
#102:2
#  GoTo
05 66 00 02 24 06
#102:3
#  Subtract MapVar24 1
0A 66 00 03 11 95 00 01 00 00 00
#102:4
#  Add HP 10
0A 66 00 04 10 03 00 0A 00 00 00
#102:5
#  StatusText 17
08 66 00 05 1D 11 00 00 00
#102:6
#  Set AutonoteBits 409
0A 66 00 06 12 E1 00 99 01 00 00
#102:7
#  Exit
05 66 00 07 01 00
#102:8
#  OnLongTimer 0 0 0 0 0 1 0
0E 66 00 08 26 00 00 00 00 00 01 00 00 00 00
#102:9
#  Set MapVar24 30
0A 66 00 09 12 95 00 1E 00 00 00
#200:0
#  OnTimer 0 0 0 0 0 0 60
0E C8 00 00 1F 00 00 00 00 00 00 3C 00 00 00
#200:1
#  Cmp MapVar1 8
0B C8 00 01 0E 7E 00 08 00 00 00 03
#200:2
#  Cmp MapVar0 1
0B C8 00 02 0E 7D 00 01 00 00 00 04
#200:3
#  Exit
05 C8 00 03 01 00
#200:4
#  SummonObject 0 -12024 -3784 400 512 1 1
1A C8 00 04 22 00 00 00 00 08 D1 FF FF 38 F1 FF FF 90 01 00 00 00 02 00 00 01 01
#200:5
#  SummonObject 0 -12032 -4744 400 512 1 1
1A C8 00 05 22 00 00 00 00 00 D1 FF FF 78 ED FF FF 90 01 00 00 00 02 00 00 01 01
#200:6
#  SummonObject 0 -12040 -2712 640 750 1 1
1A C8 00 06 22 00 00 00 00 F8 D0 FF FF 68 F5 FF FF 80 02 00 00 EE 02 00 00 01 01
#200:7
#  SummonMonsters 1 1 2 -13040 -2424 645 0 0
1B C8 00 07 13 01 01 02 10 CD FF FF 88 F6 FF FF 85 02 00 00 00 00 00 00 00 00 00 00
#200:8
#  SummonMonsters 1 2 2 -10392 -2224 645 0 0
1B C8 00 08 13 01 02 02 68 D7 FF FF 50 F7 FF FF 85 02 00 00 00 00 00 00 00 00 00 00
#200:9
#  SummonMonsters 3 1 2 -12752 -3856 640 0 0
1B C8 00 09 13 03 01 02 30 CE FF FF F0 F0 FF FF 80 02 00 00 00 00 00 00 00 00 00 00
#200:10
#  SummonMonsters 3 2 2 -11328 -3808 640 0 0
1B C8 00 0A 13 03 02 02 C0 D3 FF FF 20 F1 FF FF 80 02 00 00 00 00 00 00 00 00 00 00
#200:11
#  Add MapVar1 1
0A C8 00 0B 10 7E 00 01 00 00 00
#201:0
#  Hint 3
05 C9 00 00 04 03
#201:0
#  Set MapVar0 1
0A C9 00 00 12 7D 00 01 00 00 00
#201:1
#  MoveToMap -12045 -6073 2 0 0.
22 C9 00 01 06 F3 D0 FF FF 47 E8 FF FF 02 00 00 00 00 02 00 00 00 00 00 00 00 00 00 00 00 00 00 30 2E 00
#202:0
#  Hint 3
05 CA 00 00 04 03
#202:0
#  Set MapVar0 0
0A CA 00 00 12 7D 00 00 00 00 00
#203:0
#  Hint 3
05 CB 00 00 04 03
#203:0
#  SetSnow 1 0
06 CB 00 00 0A 01 00
#203:1
#  MoveToMap 17920 14344 2080 0 0.
22 CB 00 01 06 00 46 00 00 08 38 00 00 20 08 00 00 00 04 00 00 00 00 00 00 00 00 00 00 00 00 00 30 2E 00
#210:0
#  Cmp MapVar4 0
0B D2 00 00 0E 81 00 00 00 00 00 0D
#210:1
#  CastSpell 98 0 1 5784 11584 512 5784 11584 0
1F D2 00 01 15 62 00 01 98 16 00 00 40 2D 00 00 00 02 00 00 98 16 00 00 40 2D 00 00 00 00 00 00
#210:2
#  CastSpell 98 0 1 4312 11600 512 4312 11600 0
1F D2 00 02 15 62 00 01 D8 10 00 00 50 2D 00 00 00 02 00 00 D8 10 00 00 50 2D 00 00 00 00 00 00
#210:3
#  SetMessage 7
08 D2 00 03 1E 07 00 00 00
#210:4
#  SimpleMessage
05 D2 00 04 21 00
#210:5
#  SetMessage 12
08 D2 00 05 1E 0C 00 00 00
#210:6
#  SimpleMessage
05 D2 00 06 21 00
#210:7
#  Question 8 9 9
11 D2 00 07 1A 08 00 00 00 09 00 00 00 09 00 00 00 09
#210:8
#  Question 8 10 10
11 D2 00 08 1A 08 00 00 00 0A 00 00 00 0A 00 00 00 0E
#210:9
#  Cmp Gold 100
0B D2 00 09 0E 15 00 64 00 00 00 11
#210:10
#  SetMessage 11
08 D2 00 0A 1E 0B 00 00 00
#210:11
#  SimpleMessage
05 D2 00 0B 21 00
#210:12
#  MoveToMap 4856 10288 0 0 0.
22 D2 00 0C 06 F8 12 00 00 30 28 00 00 00 00 00 00 F4 01 00 00 00 00 00 00 00 00 00 00 00 00 00 30 2E 00
#210:13
#  Exit
05 D2 00 0D 01 00
#210:14
#  SummonMonsters 1 2 5 4920 12976 0 0 0
1B D2 00 0E 13 01 02 05 38 13 00 00 B0 32 00 00 00 00 00 00 00 00 00 00 00 00 00 00
#210:15
#  GoTo
05 D2 00 0F 24 12
#210:16
#  Exit
05 D2 00 10 01 00
#210:17
#  Subtract Gold 100
0A D2 00 11 11 15 00 64 00 00 00
#210:18
#  Set MapVar4 0
0A D2 00 12 12 81 00 00 00 00 00
#220:0
#  Cmp MapVar9 1
0B DC 00 00 0E 86 00 01 00 00 00 04
#220:1
#  Set MapVar9 1
0A DC 00 01 12 86 00 01 00 00 00
#220:2
#  SetFacetBit -1 0x2000 1
0D DC 00 02 17 FF FF FF FF 00 20 00 00 01
#220:3
#  Exit
05 DC 00 03 01 00
#220:4
#  Set MapVar9 0
0A DC 00 04 12 86 00 00 00 00 00
#220:5
#  SetFacetBit -1 0x2000 0
0D DC 00 05 17 FF FF FF FF 00 20 00 00 00
#221:0
#  Cmp MapVar14 1
0B DD 00 00 0E 8B 00 01 00 00 00 04
#221:1
#  Set MapVar14 1
0A DD 00 01 12 8B 00 01 00 00 00
#221:2
#  SetFacetBit -1 0x20000000 1
0D DD 00 02 17 FF FF FF FF 00 00 00 20 01
#221:3
#  Exit
05 DD 00 03 01 00
#221:4
#  Set MapVar14 0
0A DD 00 04 12 8B 00 00 00 00 00
#221:5
#  SetFacetBit -1 0x20000000 0
0D DD 00 05 17 FF FF FF FF 00 00 00 20 00
#225:0
#  Cmp QBits 1327
0B E1 00 00 0E 10 00 2F 05 00 00 08
#225:1
#  Cmp CurrentMight 40
0B E1 00 01 0E 27 00 28 00 00 00 05
#225:2
#  FaceExpression 7 51
06 E1 00 02 08 07 33
#225:3
#  StatusText 14
08 E1 00 03 1D 0E 00 00 00
#225:4
#  GoTo
05 E1 00 04 24 08
#225:5
#  Set QBits 1327
0A E1 00 05 12 10 00 2F 05 00 00
#225:6
#  GiveItem 4 23 1609
0A E1 00 06 29 04 17 49 06 00 00
#225:7
#  SetSprite -232 1 swrdstx
11 E1 00 07 0D 18 FF FF FF 01 73 77 72 64 73 74 78 00
#225:8
#  Exit
05 E1 00 08 01 00
#225:9
#  OnLoadMap
05 E1 00 09 25 00
#225:10
#  Cmp QBits 1327
0B E1 00 0A 0E 10 00 2F 05 00 00 07
#230:0
#  Cmp MapVar19 1
0B E6 00 00 0E 90 00 01 00 00 00 03
#230:1
#  Add Inventory 1810
0A E6 00 01 10 11 00 12 07 00 00
#230:2
#  Set MapVar19 1
0A E6 00 02 12 90 00 01 00 00 00
#230:3
#  Exit
05 E6 00 03 01 00
#231:0
#  Hint 11
05 E7 00 00 04 0B
#231:0
#  Cmp QBits 1329
0B E7 00 00 0E 10 00 31 05 00 00 02
#231:1
#  Cmp QBits 1120
0B E7 00 01 0E 10 00 60 04 00 00 03
#231:2
#  Exit
05 E7 00 02 01 00
#231:3
#  Add Inventory 2066
0A E7 00 03 10 11 00 12 08 00 00
#231:4
#  Set QBits 1329
0A E7 00 04 12 10 00 31 05 00 00
#231:5
#  Set QBits 1220
0A E7 00 05 12 10 00 C4 04 00 00
#232:0
#  Hint 23
05 E8 00 00 04 17
#232:0
#  SetMessage 22
08 E8 00 00 1E 16 00 00 00
#232:1
#  SimpleMessage
05 E8 00 01 21 00
#232:2
#  Set QBits 1395
0A E8 00 02 12 10 00 73 05 00 00
#232:3
#  Set AutonoteBits 453
0A E8 00 03 12 E1 00 C5 01 00 00
#261:0
#  Hint 18
05 05 01 00 04 12
#261:0
#  Cmp MonthIs 8
0B 05 01 00 0E F6 00 08 00 00 00 03
#261:1
#  StatusText 19
08 05 01 01 1D 13 00 00 00
#261:2
#  Exit
05 05 01 02 01 00
#261:3
#  Cmp QBits 1230
0B 05 01 03 0E 10 00 CE 04 00 00 01
#261:4
#  Set QBits 1230
0A 05 01 04 12 10 00 CE 04 00 00
#261:5
#  Cmp QBits 1239
0B 05 01 05 0E 10 00 D7 04 00 00 0B
#261:6
#  Set QBits 1239
0A 05 01 06 12 10 00 D7 04 00 00
#261:7
#  ForPlayer 5
05 05 01 07 23 05
#261:8
#  Add AirResistance 10
0A 05 01 08 10 2F 00 0A 00 00 00
#261:9
#  StatusText 20
08 05 01 09 1D 14 00 00 00
#261:10
#  Exit
05 05 01 0A 01 00
#261:11
#  ForPlayer 5
05 05 01 0B 23 05
#261:12
#  Add AirResistance 3
0A 05 01 0C 10 2F 00 03 00 00 00
#261:13
#  StatusText 21
08 05 01 0D 1D 15 00 00 00
