#1:0
#  Cmp MapVar1 1
0B 01 00 00 0E 7E 00 01 00 00 00 20
#1:1
#  Cmp MapVar0 2
0B 01 00 01 0E 7D 00 02 00 00 00 20
#1:2
#  Cmp MapVar0 1
0B 01 00 02 0E 7D 00 01 00 00 00 12
#1:3
#  CastSpell 18 0 0 1 64 500 0 896 1
1F 01 00 03 15 12 00 00 01 00 00 00 40 00 00 00 F4 01 00 00 00 00 00 00 80 03 00 00 01 00 00 00
#1:4
#  SummonMonsters 1 1 3 0 896 32 0 0
1B 01 00 04 13 01 01 03 00 00 00 00 80 03 00 00 20 00 00 00 00 00 00 00 00 00 00 00
#1:5
#  CastSpell 18 0 0 0 64 500 0 -768 1
1F 01 00 05 15 12 00 00 00 00 00 00 40 00 00 00 F4 01 00 00 00 00 00 00 00 FD FF FF 01 00 00 00
#1:6
#  SummonMonsters 1 1 3 0 -768 32 0 0
1B 01 00 06 13 01 01 03 00 00 00 00 00 FD FF FF 20 00 00 00 00 00 00 00 00 00 00 00
#1:7
#  CastSpell 18 0 0 0 64 500 576 448 1
1F 01 00 07 15 12 00 00 00 00 00 00 40 00 00 00 F4 01 00 00 40 02 00 00 C0 01 00 00 01 00 00 00
#1:8
#  SummonMonsters 1 2 3 576 448 32 0 0
1B 01 00 08 13 01 02 03 40 02 00 00 C0 01 00 00 20 00 00 00 00 00 00 00 00 00 00 00
#1:9
#  CastSpell 18 0 0 0 64 500 -576 -320 1
1F 01 00 09 15 12 00 00 00 00 00 00 40 00 00 00 F4 01 00 00 C0 FD FF FF C0 FE FF FF 01 00 00 00
#1:10
#  SummonMonsters 1 2 3 -576 -320 32 0 0
1B 01 00 0A 13 01 02 03 C0 FD FF FF C0 FE FF FF 20 00 00 00 00 00 00 00 00 00 00 00
#1:11
#  CastSpell 18 0 0 0 64 500 576 -320 1
1F 01 00 0B 15 12 00 00 00 00 00 00 40 00 00 00 F4 01 00 00 40 02 00 00 C0 FE FF FF 01 00 00 00
#1:12
#  SummonMonsters 1 3 3 576 -320 32 0 0
1B 01 00 0C 13 01 03 03 40 02 00 00 C0 FE FF FF 20 00 00 00 00 00 00 00 00 00 00 00
#1:13
#  CastSpell 18 0 0 0 64 500 -576 448 1
1F 01 00 0D 15 12 00 00 00 00 00 00 40 00 00 00 F4 01 00 00 C0 FD FF FF C0 01 00 00 01 00 00 00
#1:14
#  SummonMonsters 1 3 3 -576 448 32 0 0
1B 01 00 0E 13 01 03 03 C0 FD FF FF C0 01 00 00 20 00 00 00 00 00 00 00 00 00 00 00
#1:15
#  Add MapVar0 1
0A 01 00 0F 10 7D 00 01 00 00 00
#1:16
#  Set MapVar1 1
0A 01 00 10 12 7E 00 01 00 00 00
#1:17
#  GoTo
05 01 00 11 24 20
#1:18
#  CastSpell 6 0 0 1 64 500 0 896 1
1F 01 00 12 15 06 00 00 01 00 00 00 40 00 00 00 F4 01 00 00 00 00 00 00 80 03 00 00 01 00 00 00
#1:19
#  SummonMonsters 2 1 3 0 896 32 0 0
1B 01 00 13 13 02 01 03 00 00 00 00 80 03 00 00 20 00 00 00 00 00 00 00 00 00 00 00
#1:20
#  CastSpell 6 0 0 0 64 500 0 -768 1
1F 01 00 14 15 06 00 00 00 00 00 00 40 00 00 00 F4 01 00 00 00 00 00 00 00 FD FF FF 01 00 00 00
#1:21
#  SummonMonsters 2 1 3 0 -768 32 0 0
1B 01 00 15 13 02 01 03 00 00 00 00 00 FD FF FF 20 00 00 00 00 00 00 00 00 00 00 00
#1:22
#  CastSpell 6 0 0 0 64 500 576 448 1
1F 01 00 16 15 06 00 00 00 00 00 00 40 00 00 00 F4 01 00 00 40 02 00 00 C0 01 00 00 01 00 00 00
#1:23
#  SummonMonsters 2 2 3 576 448 32 0 0
1B 01 00 17 13 02 02 03 40 02 00 00 C0 01 00 00 20 00 00 00 00 00 00 00 00 00 00 00
#1:24
#  CastSpell 6 0 0 0 64 500 -576 -320 1
1F 01 00 18 15 06 00 00 00 00 00 00 40 00 00 00 F4 01 00 00 C0 FD FF FF C0 FE FF FF 01 00 00 00
#1:25
#  SummonMonsters 2 2 3 -576 -320 32 0 0
1B 01 00 19 13 02 02 03 C0 FD FF FF C0 FE FF FF 20 00 00 00 00 00 00 00 00 00 00 00
#1:26
#  CastSpell 6 0 0 0 64 500 576 -320 1
1F 01 00 1A 15 06 00 00 00 00 00 00 40 00 00 00 F4 01 00 00 40 02 00 00 C0 FE FF FF 01 00 00 00
#1:27
#  SummonMonsters 2 3 3 576 -320 32 0 0
1B 01 00 1B 13 02 03 03 40 02 00 00 C0 FE FF FF 20 00 00 00 00 00 00 00 00 00 00 00
#1:28
#  CastSpell 6 0 0 0 64 500 -576 448 1
1F 01 00 1C 15 06 00 00 00 00 00 00 40 00 00 00 F4 01 00 00 C0 FD FF FF C0 01 00 00 01 00 00 00
#1:29
#  SummonMonsters 2 3 3 -576 448 32 0 0
1B 01 00 1D 13 02 03 03 C0 FD FF FF C0 01 00 00 20 00 00 00 00 00 00 00 00 00 00 00
#1:30
#  Add MapVar0 1
0A 01 00 1E 10 7D 00 01 00 00 00
#1:31
#  Set MapVar1 1
0A 01 00 1F 12 7E 00 01 00 00 00
#1:32
#  SetDoorState 1 1
06 01 00 20 0F 01 01
#2:0
#  Hint 1
05 02 00 00 04 01
#2:0
#  Cmp MapVar0 2
0B 02 00 00 0E 7D 00 02 00 00 00 03
#2:1
#  OpenChest 1
05 02 00 01 07 01
#2:2
#  Exit
05 02 00 02 01 00
#2:3
#  OpenChest 2
05 02 00 03 07 02
#3:0
#  Hint 2
05 03 00 00 04 02
#3:0
#  Set MapVar1 0
0A 03 00 00 12 7E 00 00 00 00 00
