#1:0
#  Hint 100
05 01 00 00 04 64
#1:0
#  OnLoadMap
05 01 00 00 25 00
#1:1
#  Exit
05 01 00 01 01 00
#2:0
#  Hint 100
05 02 00 00 04 64
#2:0
#  OnLoadMap
05 02 00 00 25 00
#2:1
#  Exit
05 02 00 01 01 00
#3:0
#  Hint 100
05 03 00 00 04 64
#3:0
#  OnLoadMap
05 03 00 00 25 00
#3:1
#  Exit
05 03 00 01 01 00
#4:0
#  Hint 100
05 04 00 00 04 64
#4:0
#  OnLoadMap
05 04 00 00 25 00
#4:1
#  Exit
05 04 00 01 01 00
#5:0
#  Hint 100
05 05 00 00 04 64
#5:0
#  OnLoadMap
05 05 00 00 25 00
#5:1
#  Exit
05 05 00 01 01 00
#6:0
#  Hint 100
05 06 00 00 04 64
#6:0
#  OnLeaveMap
05 06 00 00 35 00
#6:1
#  Exit
05 06 00 01 01 00
#7:0
#  Hint 100
05 07 00 00 04 64
#7:0
#  OnLeaveMap
05 07 00 00 35 00
#7:1
#  Exit
05 07 00 01 01 00
#8:0
#  Hint 100
05 08 00 00 04 64
#8:0
#  OnLeaveMap
05 08 00 00 35 00
#8:1
#  Exit
05 08 00 01 01 00
#9:0
#  Hint 100
05 09 00 00 04 64
#9:0
#  OnLeaveMap
05 09 00 00 35 00
#9:1
#  Exit
05 09 00 01 01 00
#10:0
#  Hint 100
05 0A 00 00 04 64
#10:0
#  OnLeaveMap
05 0A 00 00 35 00
#10:1
#  Cmp QBits 287
0B 0A 00 01 0E 10 00 1F 01 00 00 03
#10:2
#  GoTo
05 0A 00 02 24 0F
#10:3
#  Cmp QBits 288
0B 0A 00 03 0E 10 00 20 01 00 00 0F
#10:4
#  CheckMostersKilled 2 87 0 1
0C 0A 00 04 33 02 57 00 00 00 00 01 06
#10:5
#  GoTo
05 0A 00 05 24 0F
#10:6
#  CheckMostersKilled 2 88 0 1
0C 0A 00 06 33 02 58 00 00 00 00 01 08
#10:7
#  GoTo
05 0A 00 07 24 0F
#10:8
#  CheckMostersKilled 2 89 0 1
0C 0A 00 08 33 02 59 00 00 00 00 01 0A
#10:9
#  GoTo
05 0A 00 09 24 0F
#10:10
#  Add QBits 288
0A 0A 00 0A 10 10 00 20 01 00 00
#10:11
#  Add QBits 225
0A 0A 00 0B 10 10 00 E1 00 00 00
#10:12
#  Subtract QBits 225
0A 0A 00 0C 11 10 00 E1 00 00 00
#10:13
#  Add AutonoteBits 696
0A 0A 00 0D 10 E1 00 B8 02 00 00
#10:14
#  StatusText 30
08 0A 00 0E 1D 1E 00 00 00
#10:15
#  Exit
05 0A 00 0F 01 00
#11:0
#  Hint 2
05 0B 00 00 04 02
#11:0
#  SetDoorState 1 0
06 0B 00 00 0F 01 00
#11:1
#  Exit
05 0B 00 01 01 00
#12:0
#  Hint 2
05 0C 00 00 04 02
#12:0
#  SetDoorState 2 0
06 0C 00 00 0F 02 00
#12:1
#  Exit
05 0C 00 01 01 00
#13:0
#  Hint 2
05 0D 00 00 04 02
#13:0
#  SetDoorState 3 0
06 0D 00 00 0F 03 00
#13:1
#  Exit
05 0D 00 01 01 00
#14:0
#  Hint 2
05 0E 00 00 04 02
#14:0
#  SetDoorState 4 0
06 0E 00 00 0F 04 00
#14:1
#  Exit
05 0E 00 01 01 00
#15:0
#  Hint 2
05 0F 00 00 04 02
#15:0
#  SetDoorState 5 0
06 0F 00 00 0F 05 00
#15:1
#  Exit
05 0F 00 01 01 00
#16:0
#  Hint 2
05 10 00 00 04 02
#16:0
#  SetDoorState 6 0
06 10 00 00 0F 06 00
#16:1
#  Exit
05 10 00 01 01 00
#17:0
#  Hint 2
05 11 00 00 04 02
#17:0
#  SetDoorState 7 0
06 11 00 00 0F 07 00
#17:1
#  Exit
05 11 00 01 01 00
#18:0
#  Hint 2
05 12 00 00 04 02
#18:0
#  SetDoorState 8 0
06 12 00 00 0F 08 00
#18:1
#  Exit
05 12 00 01 01 00
#19:0
#  Hint 2
05 13 00 00 04 02
#19:0
#  SetDoorState 9 0
06 13 00 00 0F 09 00
#19:1
#  Exit
05 13 00 01 01 00
#20:0
#  Hint 2
05 14 00 00 04 02
#20:0
#  SetDoorState 10 0
06 14 00 00 0F 0A 00
#20:1
#  Exit
05 14 00 01 01 00
#21:0
#  Hint 2
05 15 00 00 04 02
#21:0
#  SetDoorState 11 0
06 15 00 00 0F 0B 00
#21:1
#  Exit
05 15 00 01 01 00
#22:0
#  Hint 2
05 16 00 00 04 02
#22:0
#  SetDoorState 12 0
06 16 00 00 0F 0C 00
#22:1
#  Exit
05 16 00 01 01 00
#23:0
#  Hint 2
05 17 00 00 04 02
#23:0
#  SetDoorState 13 0
06 17 00 00 0F 0D 00
#23:1
#  Exit
05 17 00 01 01 00
#24:0
#  Hint 2
05 18 00 00 04 02
#24:0
#  SetDoorState 14 0
06 18 00 00 0F 0E 00
#24:1
#  Exit
05 18 00 01 01 00
#25:0
#  Hint 2
05 19 00 00 04 02
#25:0
#  SetDoorState 15 0
06 19 00 00 0F 0F 00
#25:1
#  Exit
05 19 00 01 01 00
#26:0
#  Hint 2
05 1A 00 00 04 02
#26:0
#  SetDoorState 16 0
06 1A 00 00 0F 10 00
#26:1
#  Exit
05 1A 00 01 01 00
#27:0
#  Hint 2
05 1B 00 00 04 02
#27:0
#  SetDoorState 17 0
06 1B 00 00 0F 11 00
#27:1
#  Exit
05 1B 00 01 01 00
#28:0
#  Hint 2
05 1C 00 00 04 02
#28:0
#  SetDoorState 18 0
06 1C 00 00 0F 12 00
#28:1
#  Exit
05 1C 00 01 01 00
#29:0
#  Hint 2
05 1D 00 00 04 02
#29:0
#  SetDoorState 19 0
06 1D 00 00 0F 13 00
#29:1
#  Exit
05 1D 00 01 01 00
#30:0
#  Hint 2
05 1E 00 00 04 02
#30:0
#  SetDoorState 20 0
06 1E 00 00 0F 14 00
#30:1
#  Exit
05 1E 00 01 01 00
#31:0
#  Hint 2
05 1F 00 00 04 02
#31:0
#  SetDoorState 21 0
06 1F 00 00 0F 15 00
#31:1
#  Exit
05 1F 00 01 01 00
#32:0
#  Hint 2
05 20 00 00 04 02
#32:0
#  SetDoorState 22 0
06 20 00 00 0F 16 00
#32:1
#  Exit
05 20 00 01 01 00
#33:0
#  Hint 2
05 21 00 00 04 02
#33:0
#  SetDoorState 23 0
06 21 00 00 0F 17 00
#33:1
#  Exit
05 21 00 01 01 00
#34:0
#  Hint 2
05 22 00 00 04 02
#34:0
#  SetDoorState 24 0
06 22 00 00 0F 18 00
#34:1
#  Exit
05 22 00 01 01 00
#35:0
#  Hint 2
05 23 00 00 04 02
#35:0
#  SetDoorState 25 0
06 23 00 00 0F 19 00
#35:1
#  Exit
05 23 00 01 01 00
#36:0
#  Hint 2
05 24 00 00 04 02
#36:0
#  SetDoorState 26 0
06 24 00 00 0F 1A 00
#36:1
#  Exit
05 24 00 01 01 00
#37:0
#  Hint 2
05 25 00 00 04 02
#37:0
#  SetDoorState 27 0
06 25 00 00 0F 1B 00
#37:1
#  Exit
05 25 00 01 01 00
#38:0
#  Hint 2
05 26 00 00 04 02
#38:0
#  SetDoorState 28 0
06 26 00 00 0F 1C 00
#38:1
#  Exit
05 26 00 01 01 00
#39:0
#  Hint 2
05 27 00 00 04 02
#39:0
#  SetDoorState 29 0
06 27 00 00 0F 1D 00
#39:1
#  Exit
05 27 00 01 01 00
#40:0
#  Hint 2
05 28 00 00 04 02
#40:0
#  SetDoorState 30 0
06 28 00 00 0F 1E 00
#40:1
#  Exit
05 28 00 01 01 00
#41:0
#  Hint 2
05 29 00 00 04 02
#41:0
#  SetDoorState 31 0
06 29 00 00 0F 1F 00
#41:1
#  Exit
05 29 00 01 01 00
#42:0
#  Hint 2
05 2A 00 00 04 02
#42:0
#  SetDoorState 32 0
06 2A 00 00 0F 20 00
#42:1
#  Exit
05 2A 00 01 01 00
#43:0
#  Hint 2
05 2B 00 00 04 02
#43:0
#  SetDoorState 33 0
06 2B 00 00 0F 21 00
#43:1
#  Exit
05 2B 00 01 01 00
#44:0
#  Hint 2
05 2C 00 00 04 02
#44:0
#  SetDoorState 34 0
06 2C 00 00 0F 22 00
#44:1
#  Exit
05 2C 00 01 01 00
#45:0
#  Hint 2
05 2D 00 00 04 02
#45:0
#  SetDoorState 35 0
06 2D 00 00 0F 23 00
#45:1
#  Exit
05 2D 00 01 01 00
#46:0
#  Hint 2
05 2E 00 00 04 02
#46:0
#  SetDoorState 36 0
06 2E 00 00 0F 24 00
#46:1
#  Exit
05 2E 00 01 01 00
#47:0
#  Hint 2
05 2F 00 00 04 02
#47:0
#  SetDoorState 37 0
06 2F 00 00 0F 25 00
#47:1
#  Exit
05 2F 00 01 01 00
#48:0
#  Hint 2
05 30 00 00 04 02
#48:0
#  SetDoorState 38 0
06 30 00 00 0F 26 00
#48:1
#  Exit
05 30 00 01 01 00
#49:0
#  Hint 2
05 31 00 00 04 02
#49:0
#  SetDoorState 39 0
06 31 00 00 0F 27 00
#49:1
#  Exit
05 31 00 01 01 00
#50:0
#  Hint 2
05 32 00 00 04 02
#50:0
#  SetDoorState 40 0
06 32 00 00 0F 28 00
#50:1
#  Exit
05 32 00 01 01 00
#51:0
#  Hint 2
05 33 00 00 04 02
#51:0
#  SetDoorState 41 0
06 33 00 00 0F 29 00
#51:1
#  Exit
05 33 00 01 01 00
#52:0
#  Hint 2
05 34 00 00 04 02
#52:0
#  SetDoorState 42 0
06 34 00 00 0F 2A 00
#52:1
#  Exit
05 34 00 01 01 00
#53:0
#  Hint 2
05 35 00 00 04 02
#53:0
#  SetDoorState 43 0
06 35 00 00 0F 2B 00
#53:1
#  Exit
05 35 00 01 01 00
#54:0
#  Hint 2
05 36 00 00 04 02
#54:0
#  SetDoorState 44 0
06 36 00 00 0F 2C 00
#54:1
#  Exit
05 36 00 01 01 00
#55:0
#  Hint 2
05 37 00 00 04 02
#55:0
#  SetDoorState 45 0
06 37 00 00 0F 2D 00
#55:1
#  Exit
05 37 00 01 01 00
#56:0
#  Hint 2
05 38 00 00 04 02
#56:0
#  SetDoorState 46 0
06 38 00 00 0F 2E 00
#56:1
#  Exit
05 38 00 01 01 00
#57:0
#  Hint 2
05 39 00 00 04 02
#57:0
#  SetDoorState 47 0
06 39 00 00 0F 2F 00
#57:1
#  Exit
05 39 00 01 01 00
#58:0
#  Hint 2
05 3A 00 00 04 02
#58:0
#  SetDoorState 48 0
06 3A 00 00 0F 30 00
#58:1
#  Exit
05 3A 00 01 01 00
#59:0
#  Hint 2
05 3B 00 00 04 02
#59:0
#  SetDoorState 49 0
06 3B 00 00 0F 31 00
#59:1
#  Exit
05 3B 00 01 01 00
#60:0
#  Hint 2
05 3C 00 00 04 02
#60:0
#  SetDoorState 50 0
06 3C 00 00 0F 32 00
#60:1
#  Exit
05 3C 00 01 01 00
#81:0
#  Hint 3
05 51 00 00 04 03
#81:0
#  OpenChest 0
05 51 00 00 07 00
#81:1
#  Exit
05 51 00 01 01 00
#82:0
#  Hint 3
05 52 00 00 04 03
#82:0
#  OpenChest 1
05 52 00 00 07 01
#82:1
#  Exit
05 52 00 01 01 00
#83:0
#  Hint 3
05 53 00 00 04 03
#83:0
#  OpenChest 2
05 53 00 00 07 02
#83:1
#  Exit
05 53 00 01 01 00
#84:0
#  Hint 3
05 54 00 00 04 03
#84:0
#  OpenChest 3
05 54 00 00 07 03
#84:1
#  Exit
05 54 00 01 01 00
#85:0
#  Hint 3
05 55 00 00 04 03
#85:0
#  OpenChest 4
05 55 00 00 07 04
#85:1
#  Exit
05 55 00 01 01 00
#86:0
#  Hint 3
05 56 00 00 04 03
#86:0
#  OpenChest 5
05 56 00 00 07 05
#86:1
#  Exit
05 56 00 01 01 00
#87:0
#  Hint 3
05 57 00 00 04 03
#87:0
#  OpenChest 6
05 57 00 00 07 06
#87:1
#  Exit
05 57 00 01 01 00
#88:0
#  Hint 3
05 58 00 00 04 03
#88:0
#  OpenChest 7
05 58 00 00 07 07
#88:1
#  Exit
05 58 00 01 01 00
#89:0
#  Hint 3
05 59 00 00 04 03
#89:0
#  OpenChest 8
05 59 00 00 07 08
#89:1
#  Exit
05 59 00 01 01 00
#90:0
#  Hint 3
05 5A 00 00 04 03
#90:0
#  OpenChest 9
05 5A 00 00 07 09
#90:1
#  Exit
05 5A 00 01 01 00
#91:0
#  Hint 3
05 5B 00 00 04 03
#91:0
#  OpenChest 10
05 5B 00 00 07 0A
#91:1
#  Exit
05 5B 00 01 01 00
#92:0
#  Hint 3
05 5C 00 00 04 03
#92:0
#  OpenChest 11
05 5C 00 00 07 0B
#92:1
#  Exit
05 5C 00 01 01 00
#93:0
#  Hint 3
05 5D 00 00 04 03
#93:0
#  OpenChest 12
05 5D 00 00 07 0C
#93:1
#  Exit
05 5D 00 01 01 00
#94:0
#  Hint 3
05 5E 00 00 04 03
#94:0
#  OpenChest 13
05 5E 00 00 07 0D
#94:1
#  Exit
05 5E 00 01 01 00
#95:0
#  Hint 3
05 5F 00 00 04 03
#95:0
#  OpenChest 14
05 5F 00 00 07 0E
#95:1
#  Exit
05 5F 00 01 01 00
#96:0
#  Hint 3
05 60 00 00 04 03
#96:0
#  OpenChest 15
05 60 00 00 07 0F
#96:1
#  Exit
05 60 00 01 01 00
#97:0
#  Hint 3
05 61 00 00 04 03
#97:0
#  OpenChest 16
05 61 00 00 07 10
#97:1
#  Exit
05 61 00 01 01 00
#98:0
#  Hint 3
05 62 00 00 04 03
#98:0
#  OpenChest 17
05 62 00 00 07 11
#98:1
#  Exit
05 62 00 01 01 00
#99:0
#  Hint 3
05 63 00 00 04 03
#99:0
#  OpenChest 18
05 63 00 00 07 12
#99:1
#  Exit
05 63 00 01 01 00
#100:0
#  Hint 3
05 64 00 00 04 03
#100:0
#  OpenChest 19
05 64 00 00 07 13
#100:1
#  Exit
05 64 00 01 01 00
#501:0
#  Hint 1
05 F5 01 00 04 01
#501:0
#  MoveToMap -20346 480 187 0 out07.odm
29 F5 01 00 06 86 B0 FF FF E0 01 00 00 BB 00 00 00 00 00 00 00 00 00 00 00 00 00 00 00 00 00 01 6F 75 74 30 37 2E 6F 64 6D 00
#501:1
#  Exit
05 F5 01 01 01 00
