#1:0
#  Hint 100
05 01 00 00 04 64
#1:0
#  OnLoadMap
05 01 00 00 25 00
#1:1
#  Exit
05 01 00 01 01 00
#2:0
#  Hint 100
05 02 00 00 04 64
#2:0
#  OnLoadMap
05 02 00 00 25 00
#2:1
#  Exit
05 02 00 01 01 00
#3:0
#  Hint 100
05 03 00 00 04 64
#3:0
#  OnLoadMap
05 03 00 00 25 00
#3:1
#  Exit
05 03 00 01 01 00
#4:0
#  Hint 100
05 04 00 00 04 64
#4:0
#  OnLoadMap
05 04 00 00 25 00
#4:1
#  Exit
05 04 00 01 01 00
#5:0
#  Hint 100
05 05 00 00 04 64
#5:0
#  OnLoadMap
05 05 00 00 25 00
#5:1
#  Exit
05 05 00 01 01 00
#6:0
#  Hint 100
05 06 00 00 04 64
#6:0
#  OnLeaveMap
05 06 00 00 35 00
#6:1
#  Cmp QBits 242
0B 06 00 01 0E 10 00 F2 00 00 00 08
#6:2
#  ForPlayer 5
05 06 00 02 23 05
#6:3
#  Cmp Inventory 606
0B 06 00 03 0E 11 00 5E 02 00 00 05
#6:4
#  GoTo
05 06 00 04 24 08
#6:5
#  Add QBits 242
0A 06 00 05 10 10 00 F2 00 00 00
#6:6
#  Add Experience 100000
0A 06 00 06 10 0D 00 A0 86 01 00
#6:7
#  Add QBits 205
0A 06 00 07 10 10 00 CD 00 00 00
#6:8
#  Exit
05 06 00 08 01 00
#7:0
#  Hint 100
05 07 00 00 04 64
#7:0
#  OnLeaveMap
05 07 00 00 35 00
#7:1
#  Exit
05 07 00 01 01 00
#8:0
#  Hint 100
05 08 00 00 04 64
#8:0
#  OnLeaveMap
05 08 00 00 35 00
#8:1
#  Exit
05 08 00 01 01 00
#9:0
#  Hint 100
05 09 00 00 04 64
#9:0
#  OnLeaveMap
05 09 00 00 35 00
#9:1
#  Exit
05 09 00 01 01 00
#10:0
#  Hint 100
05 0A 00 00 04 64
#10:0
#  OnLeaveMap
05 0A 00 00 35 00
#10:1
#  Exit
05 0A 00 01 01 00
#11:0
#  Hint 100
05 0B 00 00 04 64
#11:0
#  EnterHouse 686
08 0B 00 00 02 AE 02 00 00
#11:1
#  Exit
05 0B 00 01 01 00
#12:0
#  Hint 100
05 0C 00 00 04 64
#12:0
#  Exit
05 0C 00 00 01 00
#12:1
#  EnterHouse 686
08 0C 00 01 02 AE 02 00 00
#12:2
#  Exit
05 0C 00 02 01 00
#13:0
#  Hint 100
05 0D 00 00 04 64
#13:0
#  EnterHouse 687
08 0D 00 00 02 AF 02 00 00
#13:1
#  Exit
05 0D 00 01 01 00
#14:0
#  Hint 100
05 0E 00 00 04 64
#14:0
#  Exit
05 0E 00 00 01 00
#14:1
#  EnterHouse 687
08 0E 00 01 02 AF 02 00 00
#14:2
#  Exit
05 0E 00 02 01 00
#15:0
#  Hint 100
05 0F 00 00 04 64
#15:0
#  EnterHouse 688
08 0F 00 00 02 B0 02 00 00
#15:1
#  Exit
05 0F 00 01 01 00
#16:0
#  Hint 100
05 10 00 00 04 64
#16:0
#  Exit
05 10 00 00 01 00
#16:1
#  EnterHouse 688
08 10 00 01 02 B0 02 00 00
#16:2
#  Exit
05 10 00 02 01 00
#17:0
#  Hint 100
05 11 00 00 04 64
#17:0
#  EnterHouse 689
08 11 00 00 02 B1 02 00 00
#17:1
#  Exit
05 11 00 01 01 00
#18:0
#  Hint 100
05 12 00 00 04 64
#18:0
#  Exit
05 12 00 00 01 00
#18:1
#  EnterHouse 689
08 12 00 01 02 B1 02 00 00
#18:2
#  Exit
05 12 00 02 01 00
#19:0
#  Hint 100
05 13 00 00 04 64
#19:0
#  EnterHouse 690
08 13 00 00 02 B2 02 00 00
#19:1
#  Exit
05 13 00 01 01 00
#20:0
#  Hint 100
05 14 00 00 04 64
#20:0
#  Exit
05 14 00 00 01 00
#20:1
#  EnterHouse 690
08 14 00 01 02 B2 02 00 00
#20:2
#  Exit
05 14 00 02 01 00
#21:0
#  Hint 100
05 15 00 00 04 64
#21:0
#  EnterHouse 543
08 15 00 00 02 1F 02 00 00
#21:1
#  Exit
05 15 00 01 01 00
#22:0
#  Hint 100
05 16 00 00 04 64
#22:0
#  Exit
05 16 00 00 01 00
#22:1
#  EnterHouse 543
08 16 00 01 02 1F 02 00 00
#22:2
#  Exit
05 16 00 02 01 00
#81:0
#  Hint 3
05 51 00 00 04 03
#81:0
#  OpenChest 0
05 51 00 00 07 00
#81:1
#  Exit
05 51 00 01 01 00
#82:0
#  Hint 3
05 52 00 00 04 03
#82:0
#  OpenChest 1
05 52 00 00 07 01
#82:1
#  Exit
05 52 00 01 01 00
#83:0
#  Hint 3
05 53 00 00 04 03
#83:0
#  OpenChest 2
05 53 00 00 07 02
#83:1
#  Exit
05 53 00 01 01 00
#84:0
#  Hint 3
05 54 00 00 04 03
#84:0
#  OpenChest 3
05 54 00 00 07 03
#84:1
#  Exit
05 54 00 01 01 00
#85:0
#  Hint 3
05 55 00 00 04 03
#85:0
#  OpenChest 4
05 55 00 00 07 04
#85:1
#  Exit
05 55 00 01 01 00
#86:0
#  Hint 3
05 56 00 00 04 03
#86:0
#  OpenChest 5
05 56 00 00 07 05
#86:1
#  Exit
05 56 00 01 01 00
#87:0
#  Hint 3
05 57 00 00 04 03
#87:0
#  OpenChest 6
05 57 00 00 07 06
#87:1
#  Exit
05 57 00 01 01 00
#88:0
#  Hint 3
05 58 00 00 04 03
#88:0
#  OpenChest 7
05 58 00 00 07 07
#88:1
#  Exit
05 58 00 01 01 00
#89:0
#  Hint 3
05 59 00 00 04 03
#89:0
#  OpenChest 8
05 59 00 00 07 08
#89:1
#  Exit
05 59 00 01 01 00
#90:0
#  Hint 3
05 5A 00 00 04 03
#90:0
#  OpenChest 9
05 5A 00 00 07 09
#90:1
#  Exit
05 5A 00 01 01 00
#91:0
#  Hint 3
05 5B 00 00 04 03
#91:0
#  OpenChest 10
05 5B 00 00 07 0A
#91:1
#  Exit
05 5B 00 01 01 00
#92:0
#  Hint 3
05 5C 00 00 04 03
#92:0
#  OpenChest 11
05 5C 00 00 07 0B
#92:1
#  Exit
05 5C 00 01 01 00
#93:0
#  Hint 3
05 5D 00 00 04 03
#93:0
#  OpenChest 12
05 5D 00 00 07 0C
#93:1
#  Exit
05 5D 00 01 01 00
#94:0
#  Hint 3
05 5E 00 00 04 03
#94:0
#  OpenChest 13
05 5E 00 00 07 0D
#94:1
#  Exit
05 5E 00 01 01 00
#95:0
#  Hint 3
05 5F 00 00 04 03
#95:0
#  OpenChest 14
05 5F 00 00 07 0E
#95:1
#  Exit
05 5F 00 01 01 00
#96:0
#  Hint 3
05 60 00 00 04 03
#96:0
#  OpenChest 15
05 60 00 00 07 0F
#96:1
#  Exit
05 60 00 01 01 00
#97:0
#  Hint 3
05 61 00 00 04 03
#97:0
#  OpenChest 16
05 61 00 00 07 10
#97:1
#  Exit
05 61 00 01 01 00
#98:0
#  Hint 3
05 62 00 00 04 03
#98:0
#  OpenChest 17
05 62 00 00 07 11
#98:1
#  Exit
05 62 00 01 01 00
#99:0
#  Hint 3
05 63 00 00 04 03
#99:0
#  OpenChest 18
05 63 00 00 07 12
#99:1
#  Exit
05 63 00 01 01 00
#100:0
#  Hint 3
05 64 00 00 04 03
#100:0
#  OpenChest 19
05 64 00 00 07 13
#100:1
#  Exit
05 64 00 01 01 00
#401:0
#  Hint 45
05 91 01 00 04 2D
#401:0
#  Exit
05 91 01 00 01 00
#402:0
#  Hint 46
05 92 01 00 04 2E
#402:0
#  Exit
05 92 01 00 01 00
#403:0
#  Hint 2
05 93 01 00 04 02
#403:0
#  Exit
05 93 01 00 01 00
#451:0
#  Hint 28
05 C3 01 00 04 1C
#451:0
#  Cmp FireResBonus 25
0B C3 01 00 0E 39 00 19 00 00 00 05
#451:1
#  Add FireResBonus 25
0A C3 01 01 10 39 00 19 00 00 00
#451:2
#  StatusText 30
08 C3 01 02 1D 1E 00 00 00
#451:3
#  Add AutonoteBits 231
0A C3 01 03 10 E1 00 E7 00 00 00
#451:4
#  GoTo
05 C3 01 04 24 06
#451:5
#  StatusText 29
08 C3 01 05 1D 1D 00 00 00
#451:6
#  Exit
05 C3 01 06 01 00
#452:0
#  Hint 100
05 C4 01 00 04 64
#452:0
#  Jump 1024 512 1500
0C C4 01 00 42 00 04 00 02 DC 05 00 00
#452:1
#  Exit
05 C4 01 01 01 00
#453:0
#  Hint 100
05 C5 01 00 04 64
#453:0
#  Jump 1536 512 1500
0C C5 01 00 42 00 06 00 02 DC 05 00 00
#453:1
#  Exit
05 C5 01 01 01 00
#454:0
#  Hint 100
05 C6 01 00 04 64
#454:0
#  Jump 0 512 1500
0C C6 01 00 42 00 00 00 02 DC 05 00 00
#454:1
#  Exit
05 C6 01 01 01 00
#501:0
#  Hint 50
05 F5 01 00 04 32
#501:0
#  MoveToMap 1 1 1 376 d29.blv
27 F5 01 00 06 01 00 00 00 01 00 00 00 01 00 00 00 00 01 00 00 00 00 00 00 00 00 00 00 78 01 01 64 32 39 2E 62 6C 76 00
#501:1
#  Exit
05 F5 01 01 01 00
#502:0
#  Hint 51
05 F6 01 00 04 33
#502:0
#  MoveToMap 4 -1050 1 377 d30.blv
27 F6 01 00 06 04 00 00 00 E6 FB FF FF 01 00 00 00 00 02 00 00 00 00 00 00 00 00 00 00 79 01 01 64 33 30 2E 62 6C 76 00
#502:1
#  Exit
05 F6 01 01 01 00
#505:0
#  Hint 1
05 F9 01 00 04 01
#505:0
#  MoveToMap 20912 20208 918 0 out04.odm
29 F9 01 00 06 B0 51 00 00 F0 4E 00 00 96 03 00 00 00 04 00 00 00 00 00 00 00 00 00 00 00 00 01 6F 75 74 30 34 2E 6F 64 6D 00
#505:1
#  Exit
05 F9 01 01 01 00
