#3:0
#  SetDoorState 1 2
06 03 00 00 0F 01 02
#4:0
#  SetDoorState 2 2
06 04 00 00 0F 02 02
#5:0
#  SetDoorState 3 2
06 05 00 00 0F 03 02
#6:0
#  SetDoorState 4 2
06 06 00 00 0F 04 02
#176:0
#  Hint 3
05 B0 00 00 04 03
#176:0
#  Cmp QBits 795
0B B0 00 00 0E 10 00 1B 03 00 00 04
#176:1
#  Cmp QBits 796
0B B0 00 01 0E 10 00 1C 03 00 00 04
#176:2
#  Cmp QBits 542
0B B0 00 02 0E 10 00 1E 02 00 00 06
#176:3
#  Cmp QBits 544
0B B0 00 03 0E 10 00 20 02 00 00 06
#176:4
#  OpenChest 0
05 B0 00 04 07 00
#176:5
#  Exit
05 B0 00 05 01 00
#176:6
#  Set QBits 675
0A B0 00 06 12 10 00 A3 02 00 00
#176:7
#  OpenChest 1
05 B0 00 07 07 01
#177:0
#  Hint 3
05 B1 00 00 04 03
#177:0
#  OpenChest 2
05 B1 00 00 07 02
#178:0
#  Hint 3
05 B2 00 00 04 03
#178:0
#  OpenChest 3
05 B2 00 00 07 03
#179:0
#  Hint 3
05 B3 00 00 04 03
#179:0
#  OpenChest 4
05 B3 00 00 07 04
#180:0
#  Hint 3
05 B4 00 00 04 03
#180:0
#  OpenChest 5
05 B4 00 00 07 05
#181:0
#  Hint 3
05 B5 00 00 04 03
#181:0
#  OpenChest 6
05 B5 00 00 07 06
#182:0
#  Hint 3
05 B6 00 00 04 03
#182:0
#  OpenChest 7
05 B6 00 00 07 07
#183:0
#  Hint 3
05 B7 00 00 04 03
#183:0
#  OpenChest 8
05 B7 00 00 07 08
#184:0
#  Hint 3
05 B8 00 00 04 03
#184:0
#  OpenChest 9
05 B8 00 00 07 09
#185:0
#  Hint 3
05 B9 00 00 04 03
#185:0
#  OpenChest 10
05 B9 00 00 07 0A
#186:0
#  Hint 3
05 BA 00 00 04 03
#186:0
#  OpenChest 11
05 BA 00 00 07 0B
#187:0
#  Hint 3
05 BB 00 00 04 03
#187:0
#  OpenChest 12
05 BB 00 00 07 0C
#188:0
#  Hint 3
05 BC 00 00 04 03
#188:0
#  OpenChest 13
05 BC 00 00 07 0D
#189:0
#  Hint 3
05 BD 00 00 04 03
#189:0
#  OpenChest 14
05 BD 00 00 07 0E
#190:0
#  Hint 3
05 BE 00 00 04 03
#190:0
#  OpenChest 15
05 BE 00 00 07 0F
#191:0
#  Hint 3
05 BF 00 00 04 03
#191:0
#  OpenChest 16
05 BF 00 00 07 10
#192:0
#  Hint 3
05 C0 00 00 04 03
#192:0
#  OpenChest 17
05 C0 00 00 07 11
#193:0
#  Hint 3
05 C1 00 00 04 03
#193:0
#  OpenChest 18
05 C1 00 00 07 12
#194:0
#  Hint 3
05 C2 00 00 04 03
#194:0
#  OpenChest 19
05 C2 00 00 07 13
#195:0
#  Hint 3
05 C3 00 00 04 03
#195:0
#  OpenChest 0
05 C3 00 00 07 00
#501:0
#  MoveToMap 18754 -17550 929 0 out14.odm
29 F5 01 00 06 42 49 00 00 72 BB FF FF A1 03 00 00 00 03 00 00 00 00 00 00 00 00 00 00 00 00 08 6F 75 74 31 34 2E 6F 64 6D 00
