#1:0
#  Hint 100
05 01 00 00 04 64
#1:0
#  OnLoadMap
05 01 00 00 25 00
#1:1
#  Cmp MapVar4 2
0B 01 00 01 0E 81 00 02 00 00 00 03
#1:2
#  GoTo
05 01 00 02 24 06
#1:3
#  SetMonGroupBit 55 0x80000 1
0D 01 00 03 39 37 00 00 00 00 00 08 00 01
#1:4
#  SetMonGroupBit 56 0x80000 1
0D 01 00 04 39 38 00 00 00 00 00 08 00 01
#1:5
#  SetMonGroupBit 57 0x80000 1
0D 01 00 05 39 39 00 00 00 00 00 08 00 01
#1:6
#  Exit
05 01 00 06 01 00
#3:0
#  Hint 5
05 03 00 00 04 05
#3:0
#  SetDoorState 3 1
06 03 00 00 0F 03 01
#4:0
#  Hint 5
05 04 00 00 04 05
#4:0
#  SetDoorState 4 1
06 04 00 00 0F 04 01
#4:1
#  SetDoorState 5 1
06 04 00 01 0F 05 01
#4:2
#  SetDoorState 8 0
06 04 00 02 0F 08 00
#5:0
#  Hint 5
05 05 00 00 04 05
#5:0
#  SetDoorState 8 1
06 05 00 00 0F 08 01
#5:1
#  SetDoorState 1 0
06 05 00 01 0F 01 00
#5:2
#  SetDoorState 6 0
06 05 00 02 0F 06 00
#5:3
#  SetDoorState 4 0
06 05 00 03 0F 04 00
#5:4
#  SetDoorState 5 0
06 05 00 04 0F 05 00
#6:0
#  Hint 5
05 06 00 00 04 05
#6:0
#  SetDoorState 9 2
06 06 00 00 0F 09 02
#7:0
#  Hint 100
05 07 00 00 04 64
#7:0
#  SetDoorState 10 2
06 07 00 00 0F 0A 02
#7:1
#  SetDoorState 11 2
06 07 00 01 0F 0B 02
#8:0
#  Hint 5
05 08 00 00 04 05
#8:0
#  SetDoorState 1 1
06 08 00 00 0F 01 01
#8:1
#  SetDoorState 6 1
06 08 00 01 0F 06 01
#8:2
#  SetDoorState 8 0
06 08 00 02 0F 08 00
#9:0
#  Hint 5
05 09 00 00 04 05
#9:0
#  SetDoorState 2 1
06 09 00 00 0F 02 01
#9:1
#  SetDoorState 7 1
06 09 00 01 0F 07 01
#10:0
#  Hint 8
05 0A 00 00 04 08
#10:0
#  SetDoorState 24 0
06 0A 00 00 0F 18 00
#10:1
#  SetDoorState 20 0
06 0A 00 01 0F 14 00
#10:2
#  SetDoorState 21 0
06 0A 00 02 0F 15 00
#11:0
#  SetDoorState 22 0
06 0B 00 00 0F 16 00
#12:0
#  SetDoorState 23 0
06 0C 00 00 0F 17 00
#176:0
#  Hint 3
05 B0 00 00 04 03
#176:0
#  OpenChest 1
05 B0 00 00 07 01
#177:0
#  Hint 3
05 B1 00 00 04 03
#177:0
#  OpenChest 2
05 B1 00 00 07 02
#178:0
#  Hint 3
05 B2 00 00 04 03
#178:0
#  OpenChest 3
05 B2 00 00 07 03
#179:0
#  Hint 3
05 B3 00 00 04 03
#179:0
#  OpenChest 4
05 B3 00 00 07 04
#180:0
#  Hint 3
05 B4 00 00 04 03
#180:0
#  OpenChest 5
05 B4 00 00 07 05
#181:0
#  Hint 3
05 B5 00 00 04 03
#181:0
#  OpenChest 6
05 B5 00 00 07 06
#182:0
#  Hint 3
05 B6 00 00 04 03
#182:0
#  OpenChest 7
05 B6 00 00 07 07
#183:0
#  Hint 3
05 B7 00 00 04 03
#183:0
#  OpenChest 8
05 B7 00 00 07 08
#184:0
#  Hint 3
05 B8 00 00 04 03
#184:0
#  OpenChest 9
05 B8 00 00 07 09
#185:0
#  Hint 3
05 B9 00 00 04 03
#185:0
#  OpenChest 10
05 B9 00 00 07 0A
#186:0
#  Hint 3
05 BA 00 00 04 03
#186:0
#  OpenChest 11
05 BA 00 00 07 0B
#187:0
#  Hint 3
05 BB 00 00 04 03
#187:0
#  OpenChest 12
05 BB 00 00 07 0C
#188:0
#  Hint 3
05 BC 00 00 04 03
#188:0
#  OpenChest 13
05 BC 00 00 07 0D
#189:0
#  Hint 3
05 BD 00 00 04 03
#189:0
#  OpenChest 14
05 BD 00 00 07 0E
#190:0
#  Hint 3
05 BE 00 00 04 03
#190:0
#  OpenChest 15
05 BE 00 00 07 0F
#191:0
#  Hint 3
05 BF 00 00 04 03
#191:0
#  OpenChest 16
05 BF 00 00 07 10
#192:0
#  Hint 3
05 C0 00 00 04 03
#192:0
#  OpenChest 17
05 C0 00 00 07 11
#193:0
#  Hint 3
05 C1 00 00 04 03
#193:0
#  OpenChest 18
05 C1 00 00 07 12
#194:0
#  Hint 3
05 C2 00 00 04 03
#194:0
#  OpenChest 19
05 C2 00 00 07 13
#195:0
#  Hint 3
05 C3 00 00 04 03
#195:0
#  OpenChest 0
05 C3 00 00 07 00
#196:0
#  Hint 10
05 C4 00 00 04 0A
#196:0
#  CheckMostersKilled 3 0 0 0
0C C4 00 00 33 03 00 00 00 00 00 00 15
#196:1
#  Cmp QBits 657
0B C4 00 01 0E 10 00 91 02 00 00 03
#196:2
#  GoTo
05 C4 00 02 24 15
#196:3
#  Cmp MapVar2 3
0B C4 00 03 0E 7F 00 03 00 00 00 14
#196:4
#  RandomGoTo
0A C4 00 04 19 05 05 05 07 12 15
#196:5
#  GiveItem 5 43 0
0A C4 00 05 29 05 2B 00 00 00 00
#196:6
#  GoTo
05 C4 00 06 24 11
#196:7
#  RandomGoTo
0A C4 00 07 19 08 0A 0C 0E 10 11
#196:8
#  Add Inventory 1203
0A C4 00 08 10 11 00 B3 04 00 00
#196:9
#  GoTo
05 C4 00 09 24 11
#196:10
#  Add Inventory 1214
0A C4 00 0A 10 11 00 BE 04 00 00
#196:11
#  GoTo
05 C4 00 0B 24 11
#196:12
#  Add Inventory 1216
0A C4 00 0C 10 11 00 C0 04 00 00
#196:13
#  GoTo
05 C4 00 0D 24 11
#196:14
#  Add Inventory 1281
0A C4 00 0E 10 11 00 01 05 00 00
#196:15
#  GoTo
05 C4 00 0F 24 11
#196:16
#  Add Inventory 1269
0A C4 00 10 10 11 00 F5 04 00 00
#196:17
#  RandomGoTo
0A C4 00 11 19 12 12 12 12 15 15
#196:18
#  Add MapVar2 1
0A C4 00 12 10 7F 00 01 00 00 00
#196:19
#  GoTo
05 C4 00 13 24 15
#196:20
#  StatusText 19
08 C4 00 14 1D 13 00 00 00
#196:21
#  Exit
05 C4 00 15 01 00
#196:22
#  OnLongTimer 0 0 1 0 0 0 0
0E C4 00 16 26 00 00 01 00 00 00 00 00 00 00
#196:23
#  Set MapVar2 0
0A C4 00 17 12 7F 00 00 00 00 00
#196:24
#  Exit
05 C4 00 18 01 00
#196:25
#  OnLongTimer 1 0 0 0 0 0 0
0E C4 00 19 26 01 00 00 00 00 00 00 00 00 00
#196:26
#  OnLongTimer 6 0 0 0 0 0 0
0E C4 00 1A 26 06 00 00 00 00 00 00 00 00 00
#196:27
#  ForPlayer 5
05 C4 00 1B 23 05
#196:28
#  Subtract QBits 657
0A C4 00 1C 11 10 00 91 02 00 00
#196:29
#  SetNPCTopic 620 1 926
0D C4 00 1D 27 6C 02 00 00 01 9E 03 00 00
#196:30
#  Exit
05 C4 00 1E 01 00
#197:0
#  Hint 10
05 C5 00 00 04 0A
#197:0
#  Cmp QBits 666
0B C5 00 00 0E 10 00 9A 02 00 00 04
#197:1
#  Add Inventory 1504
0A C5 00 01 10 11 00 E0 05 00 00
#197:2
#  Set QBits 726
0A C5 00 02 12 10 00 D6 02 00 00
#197:3
#  Add QBits 666
0A C5 00 03 10 10 00 9A 02 00 00
#197:4
#  Exit
05 C5 00 04 01 00
#416:0
#  Hint 1
05 A0 01 00 04 01
#416:0
#  SpeakNPC 387
08 A0 01 00 16 83 01 00 00
#451:0
#  Hint 100
05 C3 01 00 04 64
#451:0
#  Cmp MapVar4 1
0B C3 01 00 0E 81 00 01 00 00 00 03
#451:1
#  SpeakNPC 621
08 C3 01 01 16 6D 02 00 00
#451:2
#  Set MapVar4 1
0A C3 01 02 12 81 00 01 00 00 00
#451:3
#  Exit
05 C3 01 03 01 00
#452:0
#  Hint 100
05 C4 01 00 04 64
#452:0
#  Cmp MapVar4 2
0B C4 01 00 0E 81 00 02 00 00 00 03
#452:1
#  SetMonGroupBit 56 0x80000 1
0D C4 01 01 39 38 00 00 00 00 00 08 00 01
#452:2
#  Set MapVar4 2
0A C4 01 02 12 81 00 02 00 00 00
#452:3
#  Exit
05 C4 01 03 01 00
#453:0
#  Hint 100
05 C5 01 00 04 64
#453:0
#  Cmp MapVar4 2
0B C5 01 00 0E 81 00 02 00 00 00 02
#453:1
#  Set MapVar4 0
0A C5 01 01 12 81 00 00 00 00 00
#453:2
#  Exit
05 C5 01 02 01 00
#454:0
#  Hint 100
05 C6 01 00 04 64
#454:0
#  Cmp MapAlert 0
0B C6 01 00 0E 33 01 00 00 00 00 02
#454:1
#  Exit
05 C6 01 01 01 00
#454:2
#  CastSpell 18 3 15 1074 1870 1 1074 293 1
1F C6 01 02 15 12 03 0F 32 04 00 00 4E 07 00 00 01 00 00 00 32 04 00 00 25 01 00 00 01 00 00 00
#454:3
#  CastSpell 18 3 15 -1106 1882 1 -1106 293 1
1F C6 01 03 15 12 03 0F AE FB FF FF 5A 07 00 00 01 00 00 00 AE FB FF FF 25 01 00 00 01 00 00 00
#454:4
#  CastSpell 6 3 10 -1220 427 1 1209 427 1
1F C6 01 04 15 06 03 0A 3C FB FF FF AB 01 00 00 01 00 00 00 B9 04 00 00 AB 01 00 00 01 00 00 00
#454:5
#  CastSpell 6 3 10 1209 427 1 -1220 427 1
1F C6 01 05 15 06 03 0A B9 04 00 00 AB 01 00 00 01 00 00 00 3C FB FF FF AB 01 00 00 01 00 00 00
#455:0
#  Hint 1
05 C7 01 00 04 01
#455:0
#  DamagePlayer 7 2 10
0A C7 01 00 09 07 02 0A 00 00 00
#501:0
#  Hint 2
05 F5 01 00 04 02
#501:0
#  MoveToMap 1530 -16578 1377 0 7out06.odm
2A F5 01 00 06 FA 05 00 00 3E BF FF FF 61 05 00 00 00 02 00 00 00 00 00 00 00 00 00 00 00 00 08 37 6F 75 74 30 36 2E 6F 64 6D 00
