#1:0
#  Hint 100
05 01 00 00 04 64
#1:0
#  OnLoadMap
05 01 00 00 25 00
#1:1
#  Set MapVar29 5
0A 01 00 01 12 9A 00 05 00 00 00
#1:2
#  Cmp QBits 611
0B 01 00 02 0E 10 00 63 02 00 00 06
#1:3
#  Cmp QBits 782
0B 01 00 03 0E 10 00 0E 03 00 00 0A
#1:4
#  Cmp MapVar4 2
0B 01 00 04 0E 81 00 02 00 00 00 07
#1:5
#  GoTo
05 01 00 05 24 09
#1:6
#  Set MapVar4 2
0A 01 00 06 12 81 00 02 00 00 00
#1:7
#  SetMonGroupBit 55 0x80000 1
0D 01 00 07 39 37 00 00 00 00 00 08 00 01
#1:8
#  SetMonGroupBit 56 0x80000 1
0D 01 00 08 39 38 00 00 00 00 00 08 00 01
#1:9
#  Exit
05 01 00 09 01 00
#1:10
#  Cmp Counter10 720
0B 01 00 0A 0E 00 01 D0 02 00 00 0C
#1:11
#  GoTo
05 01 00 0B 24 06
#1:12
#  Subtract QBits 782
0A 01 00 0C 11 10 00 0E 03 00 00
#1:13
#  Set MapVar4 0
0A 01 00 0D 12 81 00 00 00 00 00
#1:14
#  SetMonGroupBit 55 0x80000 0
0D 01 00 0E 39 37 00 00 00 00 00 08 00 00
#1:15
#  SetMonGroupBit 56 0x80000 0
0D 01 00 0F 39 38 00 00 00 00 00 08 00 00
#1:16
#  GoTo
05 01 00 10 24 09
#3:0
#  Hint 100
05 03 00 00 04 64
#3:0
#  EnterHouse 120
08 03 00 00 02 78 00 00 00
#4:0
#  Hint 100
05 04 00 00 04 64
#4:0
#  Exit
05 04 00 00 01 00
#4:1
#  EnterHouse 120
08 04 00 01 02 78 00 00 00
#5:0
#  Hint 100
05 05 00 00 04 64
#5:0
#  EnterHouse 464
08 05 00 00 02 D0 01 00 00
#6:0
#  Hint 100
05 06 00 00 04 64
#6:0
#  Exit
05 06 00 00 01 00
#6:1
#  EnterHouse 464
08 06 00 01 02 D0 01 00 00
#7:0
#  Hint 100
05 07 00 00 04 64
#7:0
#  EnterHouse 314
08 07 00 00 02 3A 01 00 00
#8:0
#  Hint 100
05 08 00 00 04 64
#8:0
#  Exit
05 08 00 00 01 00
#8:1
#  EnterHouse 314
08 08 00 01 02 3A 01 00 00
#9:0
#  Hint 100
05 09 00 00 04 64
#9:0
#  EnterHouse 243
08 09 00 00 02 F3 00 00 00
#10:0
#  Hint 100
05 0A 00 00 04 64
#10:0
#  Exit
05 0A 00 00 01 00
#10:1
#  EnterHouse 243
08 0A 00 01 02 F3 00 00 00
#11:0
#  Hint 100
05 0B 00 00 04 64
#11:0
#  EnterHouse 154
08 0B 00 00 02 9A 00 00 00
#12:0
#  Hint 100
05 0C 00 00 04 64
#12:0
#  Exit
05 0C 00 00 01 00
#12:1
#  EnterHouse 154
08 0C 00 01 02 9A 00 00 00
#13:0
#  Hint 100
05 0D 00 00 04 64
#13:0
#  EnterHouse 176
08 0D 00 00 02 B0 00 00 00
#14:0
#  Hint 100
05 0E 00 00 04 64
#14:0
#  Exit
05 0E 00 00 01 00
#14:1
#  EnterHouse 176
08 0E 00 01 02 B0 00 00 00
#15:0
#  Hint 100
05 0F 00 00 04 64
#15:0
#  EnterHouse 88
08 0F 00 00 02 58 00 00 00
#16:0
#  Hint 100
05 10 00 00 04 64
#16:0
#  Exit
05 10 00 00 01 00
#16:1
#  EnterHouse 88
08 10 00 01 02 58 00 00 00
#51:0
#  Hint 7
05 33 00 00 04 07
#51:0
#  Exit
05 33 00 00 01 00
#52:0
#  Hint 100
05 34 00 00 04 64
#52:0
#  EnterHouse 969
08 34 00 00 02 C9 03 00 00
#53:0
#  Hint 100
05 35 00 00 04 64
#53:0
#  EnterHouse 970
08 35 00 00 02 CA 03 00 00
#54:0
#  Hint 100
05 36 00 00 04 64
#54:0
#  EnterHouse 971
08 36 00 00 02 CB 03 00 00
#55:0
#  Hint 100
05 37 00 00 04 64
#55:0
#  EnterHouse 972
08 37 00 00 02 CC 03 00 00
#56:0
#  Hint 100
05 38 00 00 04 64
#56:0
#  EnterHouse 973
08 38 00 00 02 CD 03 00 00
#57:0
#  Hint 100
05 39 00 00 04 64
#57:0
#  EnterHouse 974
08 39 00 00 02 CE 03 00 00
#58:0
#  Hint 100
05 3A 00 00 04 64
#58:0
#  EnterHouse 975
08 3A 00 00 02 CF 03 00 00
#59:0
#  Hint 100
05 3B 00 00 04 64
#59:0
#  EnterHouse 976
08 3B 00 00 02 D0 03 00 00
#60:0
#  Hint 100
05 3C 00 00 04 64
#60:0
#  EnterHouse 977
08 3C 00 00 02 D1 03 00 00
#61:0
#  Hint 100
05 3D 00 00 04 64
#61:0
#  EnterHouse 978
08 3D 00 00 02 D2 03 00 00
#62:0
#  Hint 100
05 3E 00 00 04 64
#62:0
#  EnterHouse 979
08 3E 00 00 02 D3 03 00 00
#63:0
#  Hint 100
05 3F 00 00 04 64
#63:0
#  EnterHouse 980
08 3F 00 00 02 D4 03 00 00
#64:0
#  Hint 100
05 40 00 00 04 64
#64:0
#  EnterHouse 981
08 40 00 00 02 D5 03 00 00
#65:0
#  Hint 100
05 41 00 00 04 64
#65:0
#  EnterHouse 982
08 41 00 00 02 D6 03 00 00
#66:0
#  Hint 100
05 42 00 00 04 64
#66:0
#  EnterHouse 983
08 42 00 00 02 D7 03 00 00
#67:0
#  Hint 100
05 43 00 00 04 64
#67:0
#  EnterHouse 984
08 43 00 00 02 D8 03 00 00
#68:0
#  Hint 100
05 44 00 00 04 64
#68:0
#  EnterHouse 985
08 44 00 00 02 D9 03 00 00
#69:0
#  Hint 100
05 45 00 00 04 64
#69:0
#  EnterHouse 1133
08 45 00 00 02 6D 04 00 00
#70:0
#  Hint 100
05 46 00 00 04 64
#70:0
#  EnterHouse 1134
08 46 00 00 02 6E 04 00 00
#71:0
#  Hint 100
05 47 00 00 04 64
#71:0
#  EnterHouse 1135
08 47 00 00 02 6F 04 00 00
#151:0
#  Hint 1
05 97 00 00 04 01
#151:0
#  OpenChest 1
05 97 00 00 07 01
#152:0
#  Hint 1
05 98 00 00 04 01
#152:0
#  OpenChest 2
05 98 00 00 07 02
#153:0
#  Hint 1
05 99 00 00 04 01
#153:0
#  OpenChest 3
05 99 00 00 07 03
#154:0
#  Hint 1
05 9A 00 00 04 01
#154:0
#  OpenChest 4
05 9A 00 00 07 04
#155:0
#  Hint 1
05 9B 00 00 04 01
#155:0
#  OpenChest 5
05 9B 00 00 07 05
#156:0
#  Hint 1
05 9C 00 00 04 01
#156:0
#  OpenChest 6
05 9C 00 00 07 06
#157:0
#  Hint 1
05 9D 00 00 04 01
#157:0
#  OpenChest 7
05 9D 00 00 07 07
#158:0
#  Hint 1
05 9E 00 00 04 01
#158:0
#  OpenChest 8
05 9E 00 00 07 08
#159:0
#  Hint 1
05 9F 00 00 04 01
#159:0
#  OpenChest 9
05 9F 00 00 07 09
#160:0
#  Hint 1
05 A0 00 00 04 01
#160:0
#  OpenChest 10
05 A0 00 00 07 0A
#161:0
#  Hint 1
05 A1 00 00 04 01
#161:0
#  OpenChest 11
05 A1 00 00 07 0B
#162:0
#  Hint 1
05 A2 00 00 04 01
#162:0
#  OpenChest 12
05 A2 00 00 07 0C
#163:0
#  Hint 1
05 A3 00 00 04 01
#163:0
#  OpenChest 13
05 A3 00 00 07 0D
#164:0
#  Hint 1
05 A4 00 00 04 01
#164:0
#  OpenChest 14
05 A4 00 00 07 0E
#165:0
#  Hint 1
05 A5 00 00 04 01
#165:0
#  OpenChest 15
05 A5 00 00 07 0F
#166:0
#  Hint 1
05 A6 00 00 04 01
#166:0
#  OpenChest 16
05 A6 00 00 07 10
#167:0
#  Hint 1
05 A7 00 00 04 01
#167:0
#  OpenChest 17
05 A7 00 00 07 11
#168:0
#  Hint 1
05 A8 00 00 04 01
#168:0
#  OpenChest 18
05 A8 00 00 07 12
#169:0
#  Hint 1
05 A9 00 00 04 01
#169:0
#  OpenChest 19
05 A9 00 00 07 13
#169:1
#  Cmp QBits 580
0B A9 00 01 0E 10 00 44 02 00 00 04
#169:2
#  Cmp QBits 735
0B A9 00 02 0E 10 00 DF 02 00 00 04
#169:3
#  Add QBits 735
0A A9 00 03 10 10 00 DF 02 00 00
#169:4
#  Exit
05 A9 00 04 01 00
#170:0
#  Hint 1
05 AA 00 00 04 01
#170:0
#  OpenChest 0
05 AA 00 00 07 00
#170:1
#  Cmp QBits 579
0B AA 00 01 0E 10 00 43 02 00 00 04
#170:2
#  Cmp QBits 736
0B AA 00 02 0E 10 00 E0 02 00 00 04
#170:3
#  Add QBits 736
0A AA 00 03 10 10 00 E0 02 00 00
#170:4
#  Exit
05 AA 00 04 01 00
#201:0
#  Hint 3
05 C9 00 00 04 03
#201:0
#  Exit
05 C9 00 00 01 00
#202:0
#  Hint 4
05 CA 00 00 04 04
#202:0
#  Cmp BankGold 99
0B CA 00 00 0E 34 01 63 00 00 00 05
#202:1
#  Cmp Gold 199
0B CA 00 01 0E 15 00 C7 00 00 00 05
#202:2
#  Cmp MapVar19 1
0B CA 00 02 0E 90 00 01 00 00 00 05
#202:3
#  Add Gold 200
0A CA 00 03 10 15 00 C8 00 00 00
#202:4
#  Set MapVar19 1
0A CA 00 04 12 90 00 01 00 00 00
#202:5
#  StatusText 11
08 CA 00 05 1D 0B 00 00 00
#202:6
#  Exit
05 CA 00 06 01 00
#202:7
#  OnLongTimer 0 0 7 0 0 0 0
0E CA 00 07 26 00 00 07 00 00 00 00 00 00 00
#202:8
#  Set MapVar19 0
0A CA 00 08 12 90 00 00 00 00 00
#203:0
#  Hint 4
05 CB 00 00 04 04
#203:0
#  Cmp PlayerBits 9
0B CB 00 00 0E E9 00 09 00 00 00 07
#203:1
#  Cmp AutonoteBits 270
0B CB 00 01 0E E1 00 0E 01 00 00 03
#203:2
#  Add AutonoteBits 270
0A CB 00 02 10 E1 00 0E 01 00 00
#203:3
#  Add BaseIntellect 2
0A CB 00 03 10 21 00 02 00 00 00
#203:4
#  Add PlayerBits 9
0A CB 00 04 10 E9 00 09 00 00 00
#203:5
#  StatusText 70
08 CB 00 05 1D 46 00 00 00
#203:6
#  GoTo
05 CB 00 06 24 08
#203:7
#  StatusText 11
08 CB 00 07 1D 0B 00 00 00
#203:8
#  Exit
05 CB 00 08 01 00
#204:0
#  Hint 4
05 CC 00 00 04 04
#204:0
#  Cmp PlayerBits 11
0B CC 00 00 0E E9 00 0B 00 00 00 07
#204:1
#  Cmp AutonoteBits 272
0B CC 00 01 0E E1 00 10 01 00 00 03
#204:2
#  Add AutonoteBits 272
0A CC 00 02 10 E1 00 10 01 00 00
#204:3
#  Add PeronalityBonus 10
0A CC 00 03 10 1B 00 0A 00 00 00
#204:4
#  Add PlayerBits 11
0A CC 00 04 10 E9 00 0B 00 00 00
#204:5
#  StatusText 72
08 CC 00 05 1D 48 00 00 00
#204:6
#  GoTo
05 CC 00 06 24 08
#204:7
#  StatusText 11
08 CC 00 07 1D 0B 00 00 00
#204:8
#  Exit
05 CC 00 08 01 00
#204:9
#  OnLongTimer 0 0 0 1 0 0 0
0E CC 00 09 26 00 00 00 01 00 00 00 00 00 00
#204:10
#  ForPlayer 5
05 CC 00 0A 23 05
#204:11
#  Subtract PlayerBits 11
0A CC 00 0B 11 E9 00 0B 00 00 00
#205:0
#  Hint 4
05 CD 00 00 04 04
#205:0
#  Cmp PlayerBits 12
0B CD 00 00 0E E9 00 0C 00 00 00 07
#205:1
#  Cmp AutonoteBits 273
0B CD 00 01 0E E1 00 11 01 00 00 03
#205:2
#  Add AutonoteBits 273
0A CD 00 02 10 E1 00 11 01 00 00
#205:3
#  Add FireResBonus 10
0A CD 00 03 10 39 00 0A 00 00 00
#205:4
#  Add PlayerBits 12
0A CD 00 04 10 E9 00 0C 00 00 00
#205:5
#  StatusText 74
08 CD 00 05 1D 4A 00 00 00
#205:6
#  GoTo
05 CD 00 06 24 08
#205:7
#  StatusText 11
08 CD 00 07 1D 0B 00 00 00
#205:8
#  Exit
05 CD 00 08 01 00
#205:9
#  OnLongTimer 0 0 0 1 0 0 0
0E CD 00 09 26 00 00 00 01 00 00 00 00 00 00
#205:10
#  ForPlayer 5
05 CD 00 0A 23 05
#205:11
#  Subtract PlayerBits 12
0A CD 00 0B 11 E9 00 0C 00 00 00
#206:0
#  Hint 4
05 CE 00 00 04 04
#206:0
#  Cmp Drunk 0
0B CE 00 00 0E 6F 00 00 00 00 00 04
#206:1
#  Set Drunk 0
0A CE 00 01 12 6F 00 00 00 00 00
#206:2
#  StatusText 73
08 CE 00 02 1D 49 00 00 00
#206:3
#  GoTo
05 CE 00 03 24 08
#206:4
#  RandomGoTo
0A CE 00 04 19 05 07 00 00 00 00
#206:5
#  StatusText 75
08 CE 00 05 1D 4B 00 00 00
#206:6
#  GoTo
05 CE 00 06 24 08
#206:7
#  StatusText 76
08 CE 00 07 1D 4C 00 00 00
#206:8
#  Exit
05 CE 00 08 01 00
#207:0
#  Hint 4
05 CF 00 00 04 04
#207:0
#  Cmp FireResistance 5
0B CF 00 00 0E 2E 00 05 00 00 00 08
#207:1
#  Cmp PlayerBits 10
0B CF 00 01 0E E9 00 0A 00 00 00 08
#207:2
#  Cmp AutonoteBits 271
0B CF 00 02 0E E1 00 0F 01 00 00 04
#207:3
#  Add AutonoteBits 271
0A CF 00 03 10 E1 00 0F 01 00 00
#207:4
#  Add FireResistance 5
0A CF 00 04 10 2E 00 05 00 00 00
#207:5
#  Add PlayerBits 10
0A CF 00 05 10 E9 00 0A 00 00 00
#207:6
#  StatusText 71
08 CF 00 06 1D 47 00 00 00
#207:7
#  GoTo
05 CF 00 07 24 09
#207:8
#  StatusText 11
08 CF 00 08 1D 0B 00 00 00
#207:9
#  Exit
05 CF 00 09 01 00
#451:0
#  Hint 52
05 C3 01 00 04 34
#451:0
#  Exit
05 C3 01 00 01 00
#452:0
#  Hint 53
05 C4 01 00 04 35
#452:0
#  Cmp PlayerBits 26
0B C4 01 00 0E E9 00 1A 00 00 00 07
#452:1
#  Add MindResistance 10
0A C4 01 01 10 33 00 0A 00 00 00
#452:2
#  Add EarthResistance 10
0A C4 01 02 10 31 00 0A 00 00 00
#452:3
#  Add BodyResistance 10
0A C4 01 03 10 34 00 0A 00 00 00
#452:4
#  Add PlayerBits 26
0A C4 01 04 10 E9 00 1A 00 00 00
#452:5
#  StatusText 77
08 C4 01 05 1D 4D 00 00 00
#452:6
#  GoTo
05 C4 01 06 24 08
#452:7
#  StatusText 54
08 C4 01 07 1D 36 00 00 00
#452:8
#  Exit
05 C4 01 08 01 00
#453:0
#  Hint 50
05 C5 01 00 04 32
#453:0
#  Cmp QBits 679
0B C5 01 00 0E 10 00 A7 02 00 00 05
#453:1
#  StatusText 51
08 C5 01 01 1D 33 00 00 00
#453:2
#  Add AutonoteBits 312
0A C5 01 02 10 E1 00 38 01 00 00
#453:3
#  ForPlayer 5
05 C5 01 03 23 05
#453:4
#  Add QBits 679
0A C5 01 04 10 10 00 A7 02 00 00
#453:5
#  Exit
05 C5 01 05 01 00
#454:0
#  Hint 100
05 C6 01 00 04 64
#454:0
#  Cmp QBits 761
0B C6 01 00 0E 10 00 F9 02 00 00 06
#454:1
#  RandomGoTo
0A C6 01 01 19 02 04 00 00 00 00
#454:2
#  Set MapVar29 5
0A C6 01 02 12 9A 00 05 00 00 00
#454:3
#  GoTo
05 C6 01 03 24 06
#454:4
#  SpeakNPC 461
08 C6 01 04 16 CD 01 00 00
#454:5
#  Set MapVar29 0
0A C6 01 05 12 9A 00 00 00 00 00
#454:6
#  Exit
05 C6 01 06 01 00
#455:0
#  Hint 100
05 C7 01 00 04 64
#455:0
#  Cmp MapVar29 5
0B C7 01 00 0E 9A 00 05 00 00 00 07
#455:1
#  Cmp QBits 761
0B C7 01 01 0E 10 00 F9 02 00 00 0A
#455:2
#  Add QBits 761
0A C7 01 02 10 10 00 F9 02 00 00
#455:3
#  SummonMonsters 3 1 10 -2760 -15344 2464 66 0
1B C7 01 03 13 03 01 0A 38 F5 FF FF 10 C4 FF FF A0 09 00 00 42 00 00 00 00 00 00 00
#455:4
#  SummonMonsters 3 1 10 -4560 -16632 2464 66 0
1B C7 01 04 13 03 01 0A 30 EE FF FF 08 BF FF FF A0 09 00 00 42 00 00 00 00 00 00 00
#455:5
#  SetMonGroupBit 66 0x80000 1
0D C7 01 05 39 42 00 00 00 00 00 08 00 01
#455:6
#  Set MapVar29 5
0A C7 01 06 12 9A 00 05 00 00 00
#455:7
#  SetNPCTopic 461 0 513
0D C7 01 07 27 CD 01 00 00 00 01 02 00 00
#455:8
#  SetNPCTopic 461 1 514
0D C7 01 08 27 CD 01 00 00 01 02 02 00 00
#455:9
#  Exit
05 C7 01 09 01 00
#455:10
#  Set MapVar29 5
0A C7 01 0A 12 9A 00 05 00 00 00
#455:11
#  GoTo
05 C7 01 0B 24 07
#456:0
#  Hint 100
05 C8 01 00 04 64
#456:0
#  Cmp MapVar29 5
0B C8 01 00 0E 9A 00 05 00 00 00 07
#456:1
#  Cmp QBits 761
0B C8 01 01 0E 10 00 F9 02 00 00 0A
#456:2
#  Add QBits 761
0A C8 01 02 10 10 00 F9 02 00 00
#456:3
#  SummonMonsters 3 1 10 19336 -13040 2464 66 0
1B C8 01 03 13 03 01 0A 88 4B 00 00 10 CD FF FF A0 09 00 00 42 00 00 00 00 00 00 00
#456:4
#  SummonMonsters 3 1 10 17150 -13555 2464 66 0
1B C8 01 04 13 03 01 0A FE 42 00 00 0D CB FF FF A0 09 00 00 42 00 00 00 00 00 00 00
#456:5
#  SetMonGroupBit 66 0x80000 1
0D C8 01 05 39 42 00 00 00 00 00 08 00 01
#456:6
#  Set MapVar29 5
0A C8 01 06 12 9A 00 05 00 00 00
#456:7
#  SetNPCTopic 461 0 513
0D C8 01 07 27 CD 01 00 00 00 01 02 00 00
#456:8
#  SetNPCTopic 461 1 514
0D C8 01 08 27 CD 01 00 00 01 02 02 00 00
#456:9
#  Exit
05 C8 01 09 01 00
#456:10
#  Set MapVar29 5
0A C8 01 0A 12 9A 00 05 00 00 00
#456:11
#  GoTo
05 C8 01 0B 24 07
#500:0
#  Hint 100
05 F4 01 00 04 64
#500:0
#  CheckSeason 3
06 F4 01 00 38 03 05
#500:1
#  CheckSeason 2
06 F4 01 01 38 02 07
#500:2
#  CheckSeason 1
06 F4 01 02 38 01 09
#500:3
#  CheckSeason 0
06 F4 01 03 38 00 0B
#500:4
#  Exit
05 F4 01 04 01 00
#500:5
#  Exit
05 F4 01 05 01 00
#500:6
#  Exit
05 F4 01 06 01 00
#500:7
#  Exit
05 F4 01 07 01 00
#500:8
#  Exit
05 F4 01 08 01 00
#500:9
#  Exit
05 F4 01 09 01 00
#500:10
#  Exit
05 F4 01 0A 01 00
#500:11
#  Exit
05 F4 01 0B 01 00
#500:12
#  Exit
05 F4 01 0C 01 00
#501:0
#  Hint 30
05 F5 01 00 04 1E
#501:0
#  MoveToMap 512 -3156 1 396 t04.blv
27 F5 01 00 06 00 02 00 00 AC F3 FF FF 01 00 00 00 21 02 00 00 00 00 00 00 00 00 00 00 8C 01 02 74 30 34 2E 62 6C 76 00
#502:0
#  Hint 31
05 F6 01 00 04 1F
#502:0
#  MoveToMap -416 -1033 1 397 7d15.blv
28 F6 01 00 06 60 FE FF FF F7 FB FF FF 01 00 00 00 00 02 00 00 00 00 00 00 00 00 00 00 8D 01 09 37 64 31 35 2E 62 6C 76 00
#503:0
#  Cmp QBits 611
0B F7 01 00 0E 10 00 63 02 00 00 03
#503:1
#  SpeakNPC 357
08 F7 01 01 16 65 01 00 00
#503:2
#  Exit
05 F7 01 02 01 00
#503:3
#  MoveToMap 442 -1112 1 0 mdt10.blv
29 F7 01 03 06 BA 01 00 00 A8 FB FF FF 01 00 00 00 00 02 00 00 00 00 00 00 00 00 00 00 00 00 09 6D 64 74 31 30 2E 62 6C 76 00
#504:0
#  Hint 31
05 F8 01 00 04 1F
#504:0
#  Cmp QBits 708
0B F8 01 00 0E 10 00 C4 02 00 00 02
#504:1
#  Add QBits 708
0A F8 01 01 10 10 00 C4 02 00 00
#504:2
#  MoveToMap 190 4946 -511 397 7d15.blv
28 F8 01 02 06 BE 00 00 00 52 13 00 00 01 FE FF FF 00 04 00 00 00 00 00 00 00 00 00 00 8D 01 09 37 64 31 35 2E 62 6C 76 00
