#1:0
#  Hint 100
05 01 00 00 04 64
#1:0
#  OnLoadMap
05 01 00 00 25 00
#1:1
#  Cmp QBits 705
0B 01 00 01 0E 10 00 C1 02 00 00 03
#1:2
#  GoTo
05 01 00 02 24 05
#1:3
#  SetDoorState 25 0
06 01 00 03 0F 19 00
#1:4
#  SetDoorState 26 0
06 01 00 04 0F 1A 00
#1:5
#  SetMonGroupBit 56 0x80000 1
0D 01 00 05 39 38 00 00 00 00 00 08 00 01
#1:6
#  Exit
05 01 00 06 01 00
#3:0
#  Hint 1
05 03 00 00 04 01
#3:0
#  SetDoorState 1 2
06 03 00 00 0F 01 02
#4:0
#  Hint 1
05 04 00 00 04 01
#4:0
#  SetDoorState 2 2
06 04 00 00 0F 02 02
#176:0
#  Hint 1
05 B0 00 00 04 01
#176:0
#  OpenChest 1
05 B0 00 00 07 01
#177:0
#  Hint 1
05 B1 00 00 04 01
#177:0
#  OpenChest 2
05 B1 00 00 07 02
#178:0
#  Hint 1
05 B2 00 00 04 01
#178:0
#  OpenChest 3
05 B2 00 00 07 03
#179:0
#  Hint 1
05 B3 00 00 04 01
#179:0
#  OpenChest 4
05 B3 00 00 07 04
#180:0
#  Hint 1
05 B4 00 00 04 01
#180:0
#  OpenChest 5
05 B4 00 00 07 05
#181:0
#  Hint 1
05 B5 00 00 04 01
#181:0
#  OpenChest 6
05 B5 00 00 07 06
#182:0
#  Hint 1
05 B6 00 00 04 01
#182:0
#  OpenChest 7
05 B6 00 00 07 07
#183:0
#  Hint 1
05 B7 00 00 04 01
#183:0
#  OpenChest 8
05 B7 00 00 07 08
#184:0
#  Hint 1
05 B8 00 00 04 01
#184:0
#  OpenChest 9
05 B8 00 00 07 09
#185:0
#  Hint 1
05 B9 00 00 04 01
#185:0
#  OpenChest 10
05 B9 00 00 07 0A
#186:0
#  Hint 1
05 BA 00 00 04 01
#186:0
#  OpenChest 11
05 BA 00 00 07 0B
#187:0
#  Hint 1
05 BB 00 00 04 01
#187:0
#  OpenChest 12
05 BB 00 00 07 0C
#188:0
#  Hint 1
05 BC 00 00 04 01
#188:0
#  OpenChest 13
05 BC 00 00 07 0D
#189:0
#  Hint 1
05 BD 00 00 04 01
#189:0
#  OpenChest 14
05 BD 00 00 07 0E
#190:0
#  Hint 1
05 BE 00 00 04 01
#190:0
#  OpenChest 15
05 BE 00 00 07 0F
#191:0
#  Hint 1
05 BF 00 00 04 01
#191:0
#  OpenChest 16
05 BF 00 00 07 10
#192:0
#  Hint 1
05 C0 00 00 04 01
#192:0
#  OpenChest 17
05 C0 00 00 07 11
#193:0
#  Hint 1
05 C1 00 00 04 01
#193:0
#  OpenChest 18
05 C1 00 00 07 12
#194:0
#  Hint 1
05 C2 00 00 04 01
#194:0
#  OpenChest 19
05 C2 00 00 07 13
#195:0
#  Hint 1
05 C3 00 00 04 01
#195:0
#  OpenChest 0
05 C3 00 00 07 00
#451:0
#  Hint 5
05 C3 01 00 04 05
#451:0
#  Cmp MapVar0 2
0B C3 01 00 0E 7D 00 02 00 00 00 04
#451:1
#  SetDoorState 20 0
06 C3 01 01 0F 14 00
#451:2
#  Set MapVar0 2
0A C3 01 02 12 7D 00 02 00 00 00
#451:3
#  Exit
05 C3 01 03 01 00
#451:4
#  SetDoorState 20 1
06 C3 01 04 0F 14 01
#451:5
#  Set MapVar0 1
0A C3 01 05 12 7D 00 01 00 00 00
#451:6
#  Exit
05 C3 01 06 01 00
#452:0
#  Hint 5
05 C4 01 00 04 05
#452:0
#  Cmp MapVar1 2
0B C4 01 00 0E 7E 00 02 00 00 00 04
#452:1
#  SetDoorState 21 0
06 C4 01 01 0F 15 00
#452:2
#  Set MapVar1 2
0A C4 01 02 12 7E 00 02 00 00 00
#452:3
#  Exit
05 C4 01 03 01 00
#452:4
#  SetDoorState 21 1
06 C4 01 04 0F 15 01
#452:5
#  Set MapVar1 1
0A C4 01 05 12 7E 00 01 00 00 00
#452:6
#  Exit
05 C4 01 06 01 00
#501:0
#  Hint 2
05 F5 01 00 04 02
#501:0
#  Cmp MapVar1 2
0B F5 01 00 0E 7E 00 02 00 00 00 03
#501:1
#  MoveToMap 2899 1448 695 0 mdr03.blv
29 F5 01 01 06 53 0B 00 00 A8 05 00 00 B7 02 00 00 04 01 00 00 00 00 00 00 00 00 00 00 00 00 00 6D 64 72 30 33 2E 62 6C 76 00
#501:2
#  Exit
05 F5 01 02 01 00
#501:3
#  MoveToMap 423 -1059 1 0 mdk05.blv
29 F5 01 03 06 A7 01 00 00 DD FB FF FF 01 00 00 00 80 02 00 00 00 00 00 00 00 00 00 00 00 00 00 6D 64 6B 30 35 2E 62 6C 76 00
#501:4
#  Exit
05 F5 01 04 01 00
#502:0
#  Hint 2
05 F6 01 00 04 02
#502:0
#  Cmp MapVar0 2
0B F6 01 00 0E 7D 00 02 00 00 00 03
#502:1
#  MoveToMap -416 -1056 1 0 mdk04.blv
29 F6 01 01 06 60 FE FF FF E0 FB FF FF 01 00 00 00 80 01 00 00 00 00 00 00 00 00 00 00 00 00 00 6D 64 6B 30 34 2E 62 6C 76 00
#502:2
#  Exit
05 F6 01 02 01 00
#502:3
#  MoveToMap -493 -1049 1 0 mdk02.blv
29 F6 01 03 06 13 FE FF FF E7 FB FF FF 01 00 00 00 00 01 00 00 00 00 00 00 00 00 00 00 00 00 00 6D 64 6B 30 32 2E 62 6C 76 00
#502:4
#  Exit
05 F6 01 04 01 00
