#1:0
#  Hint 100
05 01 00 00 04 64
#1:0
#  OnLoadMap
05 01 00 00 25 00
#1:1
#  Cmp QBits 705
0B 01 00 01 0E 10 00 C1 02 00 00 03
#1:2
#  GoTo
05 01 00 02 24 05
#1:3
#  SetDoorState 25 0
06 01 00 03 0F 19 00
#1:4
#  SetDoorState 26 0
06 01 00 04 0F 1A 00
#1:5
#  SetMonGroupBit 56 0x80000 1
0D 01 00 05 39 38 00 00 00 00 00 08 00 01
#1:6
#  Exit
05 01 00 06 01 00
#3:0
#  Hint 1
05 03 00 00 04 01
#3:0
#  SetDoorState 1 0
06 03 00 00 0F 01 00
#4:0
#  SetDoorState 1 1
06 04 00 00 0F 01 01
#5:0
#  Hint 1
05 05 00 00 04 01
#5:0
#  SetDoorState 2 0
06 05 00 00 0F 02 00
#6:0
#  SetDoorState 2 1
06 06 00 00 0F 02 01
#176:0
#  Hint 3
05 B0 00 00 04 03
#176:0
#  Cmp QBits 705
0B B0 00 00 0E 10 00 C1 02 00 00 03
#176:1
#  OpenChest 0
05 B0 00 01 07 00
#176:2
#  Exit
05 B0 00 02 01 00
#176:3
#  OpenChest 1
05 B0 00 03 07 01
#177:0
#  Hint 3
05 B1 00 00 04 03
#177:0
#  OpenChest 2
05 B1 00 00 07 02
#178:0
#  Hint 3
05 B2 00 00 04 03
#178:0
#  OpenChest 3
05 B2 00 00 07 03
#179:0
#  Hint 3
05 B3 00 00 04 03
#179:0
#  OpenChest 4
05 B3 00 00 07 04
#180:0
#  Hint 3
05 B4 00 00 04 03
#180:0
#  OpenChest 5
05 B4 00 00 07 05
#181:0
#  Hint 3
05 B5 00 00 04 03
#181:0
#  OpenChest 6
05 B5 00 00 07 06
#182:0
#  Hint 3
05 B6 00 00 04 03
#182:0
#  OpenChest 7
05 B6 00 00 07 07
#183:0
#  Hint 3
05 B7 00 00 04 03
#183:0
#  OpenChest 8
05 B7 00 00 07 08
#184:0
#  Hint 3
05 B8 00 00 04 03
#184:0
#  OpenChest 9
05 B8 00 00 07 09
#185:0
#  Hint 3
05 B9 00 00 04 03
#185:0
#  OpenChest 10
05 B9 00 00 07 0A
#186:0
#  Hint 3
05 BA 00 00 04 03
#186:0
#  OpenChest 11
05 BA 00 00 07 0B
#187:0
#  Hint 3
05 BB 00 00 04 03
#187:0
#  OpenChest 12
05 BB 00 00 07 0C
#188:0
#  Hint 3
05 BC 00 00 04 03
#188:0
#  OpenChest 13
05 BC 00 00 07 0D
#189:0
#  Hint 3
05 BD 00 00 04 03
#189:0
#  OpenChest 14
05 BD 00 00 07 0E
#190:0
#  Hint 3
05 BE 00 00 04 03
#190:0
#  OpenChest 15
05 BE 00 00 07 0F
#191:0
#  Hint 3
05 BF 00 00 04 03
#191:0
#  OpenChest 16
05 BF 00 00 07 10
#192:0
#  Hint 3
05 C0 00 00 04 03
#192:0
#  OpenChest 17
05 C0 00 00 07 11
#193:0
#  Hint 3
05 C1 00 00 04 03
#193:0
#  OpenChest 18
05 C1 00 00 07 12
#194:0
#  Hint 3
05 C2 00 00 04 03
#194:0
#  OpenChest 19
05 C2 00 00 07 13
#376:0
#  Hint 11
05 78 01 00 04 0B
#376:0
#  Cmp QBits 705
0B 78 01 00 0E 10 00 C1 02 00 00 08
#376:1
#  ForPlayer 5
05 78 01 01 23 05
#376:2
#  Cmp Inventory 1459
0B 78 01 02 0E 11 00 B3 05 00 00 04
#376:3
#  GoTo
05 78 01 03 24 08
#376:4
#  SetDoorState 25 0
06 78 01 04 0F 19 00
#376:5
#  SetDoorState 26 0
06 78 01 05 0F 1A 00
#376:6
#  Add QBits 705
0A 78 01 06 10 10 00 C1 02 00 00
#376:7
#  Subtract Inventory 1459
0A 78 01 07 11 11 00 B3 05 00 00
#376:8
#  Exit
05 78 01 08 01 00
#451:0
#  Hint 5
05 C3 01 00 04 05
#451:0
#  Cmp MapVar0 2
0B C3 01 00 0E 7D 00 02 00 00 00 04
#451:1
#  SetDoorState 20 0
06 C3 01 01 0F 14 00
#451:2
#  Set MapVar0 2
0A C3 01 02 12 7D 00 02 00 00 00
#451:3
#  Exit
05 C3 01 03 01 00
#451:4
#  SetDoorState 20 1
06 C3 01 04 0F 14 01
#451:5
#  Set MapVar0 1
0A C3 01 05 12 7D 00 01 00 00 00
#451:6
#  Exit
05 C3 01 06 01 00
#501:0
#  Hint 2
05 F5 01 00 04 02
#501:0
#  MoveToMap -13827 20039 961 0 out11.odm
29 F5 01 00 06 FD C9 FF FF 47 4E 00 00 C1 03 00 00 00 06 00 00 00 00 00 00 00 00 00 00 00 00 08 6F 75 74 31 31 2E 6F 64 6D 00
#502:0
#  Hint 2
05 F6 01 00 04 02
#502:0
#  Cmp MapVar0 2
0B F6 01 00 0E 7D 00 02 00 00 00 03
#502:1
#  MoveToMap 407 -1064 1 0 mdk01.blv
29 F6 01 01 06 97 01 00 00 D8 FB FF FF 01 00 00 00 00 03 00 00 00 00 00 00 00 00 00 00 00 00 00 6D 64 6B 30 31 2E 62 6C 76 00
#502:2
#  Exit
05 F6 01 02 01 00
#502:3
#  MoveToMap -404 -1041 1 0 mdk05.blv
29 F6 01 03 06 6C FE FF FF EF FB FF FF 01 00 00 00 00 01 00 00 00 00 00 00 00 00 00 00 00 00 00 6D 64 6B 30 35 2E 62 6C 76 00
#502:4
#  Exit
05 F6 01 04 01 00
