#1:0
#  Hint 100
05 01 00 00 04 64
#1:0
#  OnLoadMap
05 01 00 00 25 00
#1:1
#  Cmp QBits 535
0B 01 00 01 0E 10 00 17 02 00 00 05
#1:2
#  Cmp QBits 1684
0B 01 00 02 0E 10 00 94 06 00 00 04
#1:3
#  GoTo
05 01 00 03 24 05
#1:4
#  SetMonGroupBit 56 0x10000 0
0D 01 00 04 39 38 00 00 00 00 00 01 00 00
#1:5
#  Exit
05 01 00 05 01 00
#176:0
#  Hint 1
05 B0 00 00 04 01
#176:0
#  OpenChest 1
05 B0 00 00 07 01
#177:0
#  Hint 1
05 B1 00 00 04 01
#177:0
#  OpenChest 2
05 B1 00 00 07 02
#178:0
#  Hint 1
05 B2 00 00 04 01
#178:0
#  OpenChest 3
05 B2 00 00 07 03
#179:0
#  Hint 1
05 B3 00 00 04 01
#179:0
#  OpenChest 4
05 B3 00 00 07 04
#180:0
#  Hint 1
05 B4 00 00 04 01
#180:0
#  OpenChest 5
05 B4 00 00 07 05
#181:0
#  Hint 1
05 B5 00 00 04 01
#181:0
#  OpenChest 6
05 B5 00 00 07 06
#182:0
#  Hint 1
05 B6 00 00 04 01
#182:0
#  OpenChest 7
05 B6 00 00 07 07
#183:0
#  Hint 1
05 B7 00 00 04 01
#183:0
#  OpenChest 8
05 B7 00 00 07 08
#184:0
#  Hint 1
05 B8 00 00 04 01
#184:0
#  OpenChest 9
05 B8 00 00 07 09
#185:0
#  Hint 1
05 B9 00 00 04 01
#185:0
#  OpenChest 10
05 B9 00 00 07 0A
#186:0
#  Hint 1
05 BA 00 00 04 01
#186:0
#  OpenChest 11
05 BA 00 00 07 0B
#187:0
#  Hint 1
05 BB 00 00 04 01
#187:0
#  OpenChest 12
05 BB 00 00 07 0C
#188:0
#  Hint 1
05 BC 00 00 04 01
#188:0
#  OpenChest 13
05 BC 00 00 07 0D
#189:0
#  Hint 1
05 BD 00 00 04 01
#189:0
#  OpenChest 14
05 BD 00 00 07 0E
#190:0
#  Hint 1
05 BE 00 00 04 01
#190:0
#  OpenChest 15
05 BE 00 00 07 0F
#191:0
#  Hint 1
05 BF 00 00 04 01
#191:0
#  OpenChest 16
05 BF 00 00 07 10
#192:0
#  Hint 1
05 C0 00 00 04 01
#192:0
#  OpenChest 17
05 C0 00 00 07 11
#193:0
#  Hint 1
05 C1 00 00 04 01
#193:0
#  OpenChest 18
05 C1 00 00 07 12
#194:0
#  Hint 1
05 C2 00 00 04 01
#194:0
#  OpenChest 19
05 C2 00 00 07 13
#195:0
#  Hint 1
05 C3 00 00 04 01
#195:0
#  OpenChest 0
05 C3 00 00 07 00
#376:0
#  Hint 100
05 78 01 00 04 64
#376:0
#  OnTimer 0 0 0 0 0 0 7
0E 78 01 00 1F 00 00 00 00 00 00 07 00 00 00
#376:1
#  Cmp QBits 534
0B 78 01 01 0E 10 00 16 02 00 00 03
#376:2
#  GoTo
05 78 01 02 24 0A
#376:3
#  Cmp QBits 535
0B 78 01 03 0E 10 00 17 02 00 00 0A
#376:4
#  CheckMostersKilled 1 56 1 0
0C 78 01 04 33 01 38 00 00 00 01 00 06
#376:5
#  GoTo
05 78 01 05 24 0A
#376:6
#  ForPlayer 5
05 78 01 06 23 05
#376:7
#  Set QBits 535
0A 78 01 07 12 10 00 17 02 00 00
#376:8
#  SetNPCGreeting 356 0
0C 78 01 08 32 64 01 00 00 00 00 00 00
#376:9
#  SpeakNPC 356
08 78 01 09 16 64 01 00 00
#376:10
#  Exit
05 78 01 0A 01 00
#501:0
#  Hint 2
05 F5 01 00 04 02
#501:0
#  MoveToMap -1037 21058 2656 0 7out13.odm
2A F5 01 00 06 F3 FB FF FF 42 52 00 00 60 0A 00 00 00 06 00 00 00 00 00 00 00 00 00 00 00 00 04 37 6F 75 74 31 33 2E 6F 64 6D 00
