#2:0
#  Hint 100
05 02 00 00 04 64
#2:0
#  OnLeaveMap
05 02 00 00 35 00
#2:1
#  Cmp QBits 739
0B 02 00 01 0E 10 00 E3 02 00 00 03
#2:2
#  Cmp Inventory 1449
0B 02 00 02 0E 11 00 A9 05 00 00 04
#2:3
#  Exit
05 02 00 03 01 00
#2:4
#  Add QBits 739
0A 02 00 04 10 10 00 E3 02 00 00
#176:0
#  Hint 3
05 B0 00 00 04 03
#176:0
#  OpenChest 1
05 B0 00 00 07 01
#177:0
#  Hint 3
05 B1 00 00 04 03
#177:0
#  OpenChest 2
05 B1 00 00 07 02
#178:0
#  Hint 3
05 B2 00 00 04 03
#178:0
#  OpenChest 3
05 B2 00 00 07 03
#179:0
#  Hint 3
05 B3 00 00 04 03
#179:0
#  OpenChest 4
05 B3 00 00 07 04
#180:0
#  Hint 3
05 B4 00 00 04 03
#180:0
#  OpenChest 5
05 B4 00 00 07 05
#181:0
#  Hint 3
05 B5 00 00 04 03
#181:0
#  OpenChest 6
05 B5 00 00 07 06
#182:0
#  Hint 3
05 B6 00 00 04 03
#182:0
#  OpenChest 7
05 B6 00 00 07 07
#183:0
#  Hint 3
05 B7 00 00 04 03
#183:0
#  OpenChest 8
05 B7 00 00 07 08
#184:0
#  Hint 3
05 B8 00 00 04 03
#184:0
#  OpenChest 9
05 B8 00 00 07 09
#185:0
#  Hint 3
05 B9 00 00 04 03
#185:0
#  OpenChest 10
05 B9 00 00 07 0A
#186:0
#  Hint 3
05 BA 00 00 04 03
#186:0
#  OpenChest 11
05 BA 00 00 07 0B
#187:0
#  Hint 3
05 BB 00 00 04 03
#187:0
#  OpenChest 12
05 BB 00 00 07 0C
#188:0
#  Hint 3
05 BC 00 00 04 03
#188:0
#  OpenChest 13
05 BC 00 00 07 0D
#189:0
#  Hint 3
05 BD 00 00 04 03
#189:0
#  OpenChest 14
05 BD 00 00 07 0E
#190:0
#  Hint 3
05 BE 00 00 04 03
#190:0
#  OpenChest 15
05 BE 00 00 07 0F
#191:0
#  Hint 3
05 BF 00 00 04 03
#191:0
#  OpenChest 16
05 BF 00 00 07 10
#192:0
#  Hint 3
05 C0 00 00 04 03
#192:0
#  OpenChest 17
05 C0 00 00 07 11
#193:0
#  Hint 3
05 C1 00 00 04 03
#193:0
#  OpenChest 18
05 C1 00 00 07 12
#194:0
#  Hint 3
05 C2 00 00 04 03
#194:0
#  OpenChest 19
05 C2 00 00 07 13
#195:0
#  Hint 3
05 C3 00 00 04 03
#195:0
#  OpenChest 0
05 C3 00 00 07 00
#501:0
#  Hint 2
05 F5 01 00 04 02
#501:0
#  MoveToMap -7747 15880 6977 0 out12.odm
29 F5 01 00 06 BD E1 FF FF 08 3E 00 00 41 1B 00 00 00 00 00 00 00 00 00 00 00 00 00 00 00 00 04 6F 75 74 31 32 2E 6F 64 6D 00
#502:0
#  Hint 2
05 F6 01 00 04 02
#502:0
#  MoveToMap -13812 16974 6656 0 out12.odm
29 F6 01 00 06 0C CA FF FF 4E 42 00 00 00 1A 00 00 00 06 00 00 00 00 00 00 00 00 00 00 00 00 04 6F 75 74 31 32 2E 6F 64 6D 00
