#1:0
#  Hint 100
05 01 00 00 04 64
#1:0
#  OnLoadMap
05 01 00 00 25 00
#1:1
#  Cmp QBits 775
0B 01 00 01 0E 10 00 07 03 00 00 0E
#1:2
#  Cmp QBits 616
0B 01 00 02 0E 10 00 68 02 00 00 04
#1:3
#  Cmp QBits 635
0B 01 00 03 0E 10 00 7B 02 00 00 09
#1:4
#  Add QBits 775
0A 01 00 04 10 10 00 07 03 00 00
#1:5
#  SetNPCGreeting 462 316
0C 01 00 05 32 CE 01 00 00 3C 01 00 00
#1:6
#  SpeakNPC 462
08 01 00 06 16 CE 01 00 00
#1:7
#  Add Inventory 866
0A 01 00 07 10 11 00 62 03 00 00
#1:8
#  GoTo
05 01 00 08 24 0E
#1:9
#  SetNPCGreeting 462 317
0C 01 00 09 32 CE 01 00 00 3D 01 00 00
#1:10
#  Add QBits 775
0A 01 00 0A 10 10 00 07 03 00 00
#1:11
#  SpeakNPC 462
08 01 00 0B 16 CE 01 00 00
#1:12
#  Add Inventory 866
0A 01 00 0C 10 11 00 62 03 00 00
#1:13
#  GoTo
05 01 00 0D 24 0E
#1:14
#  Exit
05 01 00 0E 01 00
#51:0
#  Hint 7
05 33 00 00 04 07
#51:0
#  Exit
05 33 00 00 01 00
#52:0
#  Hint 100
05 34 00 00 04 64
#52:0
#  EnterHouse 1150
08 34 00 00 02 7E 04 00 00
#151:0
#  Hint 1
05 97 00 00 04 01
#151:0
#  OpenChest 1
05 97 00 00 07 01
#152:0
#  Hint 1
05 98 00 00 04 01
#152:0
#  OpenChest 2
05 98 00 00 07 02
#153:0
#  Hint 1
05 99 00 00 04 01
#153:0
#  OpenChest 3
05 99 00 00 07 03
#154:0
#  Hint 1
05 9A 00 00 04 01
#154:0
#  OpenChest 4
05 9A 00 00 07 04
#155:0
#  Hint 1
05 9B 00 00 04 01
#155:0
#  OpenChest 5
05 9B 00 00 07 05
#156:0
#  Hint 1
05 9C 00 00 04 01
#156:0
#  OpenChest 6
05 9C 00 00 07 06
#157:0
#  Hint 1
05 9D 00 00 04 01
#157:0
#  OpenChest 7
05 9D 00 00 07 07
#158:0
#  Hint 1
05 9E 00 00 04 01
#158:0
#  OpenChest 8
05 9E 00 00 07 08
#159:0
#  Hint 1
05 9F 00 00 04 01
#159:0
#  OpenChest 9
05 9F 00 00 07 09
#160:0
#  Hint 1
05 A0 00 00 04 01
#160:0
#  OpenChest 10
05 A0 00 00 07 0A
#161:0
#  Hint 1
05 A1 00 00 04 01
#161:0
#  OpenChest 11
05 A1 00 00 07 0B
#162:0
#  Hint 1
05 A2 00 00 04 01
#162:0
#  OpenChest 12
05 A2 00 00 07 0C
#163:0
#  Hint 1
05 A3 00 00 04 01
#163:0
#  OpenChest 13
05 A3 00 00 07 0D
#164:0
#  Hint 1
05 A4 00 00 04 01
#164:0
#  OpenChest 14
05 A4 00 00 07 0E
#165:0
#  Hint 1
05 A5 00 00 04 01
#165:0
#  OpenChest 15
05 A5 00 00 07 0F
#166:0
#  Hint 1
05 A6 00 00 04 01
#166:0
#  OpenChest 16
05 A6 00 00 07 10
#167:0
#  Hint 1
05 A7 00 00 04 01
#167:0
#  OpenChest 17
05 A7 00 00 07 11
#168:0
#  Hint 1
05 A8 00 00 04 01
#168:0
#  OpenChest 18
05 A8 00 00 07 12
#169:0
#  Hint 1
05 A9 00 00 04 01
#169:0
#  OpenChest 19
05 A9 00 00 07 13
#170:0
#  Hint 1
05 AA 00 00 04 01
#170:0
#  OpenChest 0
05 AA 00 00 07 00
#201:0
#  Hint 3
05 C9 00 00 04 03
#201:0
#  Exit
05 C9 00 00 01 00
#202:0
#  Hint 4
05 CA 00 00 04 04
#202:0
#  Cmp MapVar0 1
0B CA 00 00 0E 7D 00 01 00 00 00 05
#202:1
#  Add MightBonus 100
0A CA 00 01 10 19 00 64 00 00 00
#202:2
#  StatusText 60
08 CA 00 02 1D 3C 00 00 00
#202:3
#  Set MapVar0 1
0A CA 00 03 12 7D 00 01 00 00 00
#202:4
#  Exit
05 CA 00 04 01 00
#202:5
#  StatusText 11
08 CA 00 05 1D 0B 00 00 00
#202:6
#  Exit
05 CA 00 06 01 00
#202:7
#  OnTimer 0 0 7 0 0 0 0
0E CA 00 07 1F 00 00 07 00 00 00 00 00 00 00
#202:8
#  Set MapVar0 0
0A CA 00 08 12 7D 00 00 00 00 00
#202:9
#  Exit
05 CA 00 09 01 00
#203:0
#  Hint 25
05 CB 00 00 04 19
#203:0
#  Exit
05 CB 00 00 01 00
#204:0
#  Hint 26
05 CC 00 00 04 1A
#204:0
#  Exit
05 CC 00 00 01 00
#205:0
#  Hint 3
05 CD 00 00 04 03
#205:0
#  Cmp Gold 5000
0B CD 00 00 0E 15 00 88 13 00 00 20
#205:1
#  Subtract Gold 4999
0A CD 00 01 11 15 00 87 13 00 00
#205:2
#  GoTo
05 CD 00 02 24 1E
#205:3
#  RandomGoTo
0A CD 00 03 19 05 0E 16 00 00 00
#205:4
#  GoTo
05 CD 00 04 24 1E
#205:5
#  RandomGoTo
0A CD 00 05 19 07 09 0B 0C 00 00
#205:6
#  GoTo
05 CD 00 06 24 1E
#205:7
#  Set Eradicated 0
0A CD 00 07 12 7B 00 00 00 00 00
#205:8
#  GoTo
05 CD 00 08 24 1E
#205:9
#  Set AgeBonus 0
0A CD 00 09 12 0B 00 00 00 00 00
#205:10
#  Add Experience 5000
0A CD 00 0A 10 0D 00 88 13 00 00
#205:11
#  GoTo
05 CD 00 0B 24 1E
#205:12
#  Set Dead 0
0A CD 00 0C 12 79 00 00 00 00 00
#205:13
#  GoTo
05 CD 00 0D 24 1E
#205:14
#  RandomGoTo
0A CD 00 0E 19 10 12 14 00 00 00
#205:15
#  GoTo
05 CD 00 0F 24 1E
#205:16
#  Add AirResBonus 50
0A CD 00 10 10 3A 00 32 00 00 00
#205:17
#  GoTo
05 CD 00 11 24 1E
#205:18
#  Add FireResBonus 50
0A CD 00 12 10 39 00 32 00 00 00
#205:19
#  GoTo
05 CD 00 13 24 1E
#205:20
#  Set Stoned 0
0A CD 00 14 12 7A 00 00 00 00 00
#205:21
#  GoTo
05 CD 00 15 24 1E
#205:22
#  RandomGoTo
0A CD 00 16 19 18 1A 1C 00 00 00
#205:23
#  GoTo
05 CD 00 17 24 1E
#205:24
#  Add Gold 10000
0A CD 00 18 10 15 00 10 27 00 00
#205:25
#  GoTo
05 CD 00 19 24 1E
#205:26
#  Add SkillPoints 10
0A CD 00 1A 10 F5 00 0A 00 00 00
#205:27
#  GoTo
05 CD 00 1B 24 1E
#205:28
#  Subtract ArmorClassBonus 50
0A CD 00 1C 11 08 00 32 00 00 00
#205:29
#  GoTo
05 CD 00 1D 24 1E
#205:30
#  StatusText 65
08 CD 00 1E 1D 41 00 00 00
#205:31
#  Exit
05 CD 00 1F 01 00
#205:32
#  Subtract Gold 5000
0A CD 00 20 11 15 00 88 13 00 00
#205:33
#  GoTo
05 CD 00 21 24 03
#451:0
#  Hint 52
05 C3 01 00 04 34
#451:0
#  Exit
05 C3 01 00 01 00
#452:0
#  Hint 53
05 C4 01 00 04 35
#452:0
#  Set QBits 758
0A C4 01 00 12 10 00 F6 02 00 00
#452:1
#  MoveToMap 7598 -5250 129 0 7out02.odm
2A C4 01 01 06 AE 1D 00 00 7E EB FF FF 81 00 00 00 00 04 00 00 00 00 00 00 00 00 00 00 00 00 00 37 6F 75 74 30 32 2E 6F 64 6D 00
#453:0
#  Hint 50
05 C5 01 00 04 32
#453:0
#  Cmp QBits 686
0B C5 01 00 0E 10 00 AE 02 00 00 05
#453:1
#  StatusText 51
08 C5 01 01 1D 33 00 00 00
#453:2
#  Add AutonoteBits 319
0A C5 01 02 10 E1 00 3F 01 00 00
#453:3
#  ForPlayer 5
05 C5 01 03 23 05
#453:4
#  Add QBits 686
0A C5 01 04 10 10 00 AE 02 00 00
#453:5
#  Exit
05 C5 01 05 01 00
#500:0
#  Hint 100
05 F4 01 00 04 64
#500:0
#  CheckSeason 3
06 F4 01 00 38 03 05
#500:1
#  CheckSeason 2
06 F4 01 01 38 02 07
#500:2
#  CheckSeason 1
06 F4 01 02 38 01 09
#500:3
#  CheckSeason 0
06 F4 01 03 38 00 0B
#500:4
#  Exit
05 F4 01 04 01 00
#500:5
#  Exit
05 F4 01 05 01 00
#500:6
#  Exit
05 F4 01 06 01 00
#500:7
#  Exit
05 F4 01 07 01 00
#500:8
#  Exit
05 F4 01 08 01 00
#500:9
#  Exit
05 F4 01 09 01 00
#500:10
#  Exit
05 F4 01 0A 01 00
#500:11
#  Exit
05 F4 01 0B 01 00
#500:12
#  Exit
05 F4 01 0C 01 00
#501:0
#  Hint 30
05 F5 01 00 04 1E
#501:0
#  MoveToMap 2648 -1372 1 409 7d27.blv
28 F5 01 00 06 58 0A 00 00 A4 FA FF FF 01 00 00 00 00 04 00 00 00 00 00 00 00 00 00 00 99 01 03 37 64 32 37 2E 62 6C 76 00
#502:0
#  Hint 31
05 F6 01 00 04 1F
#502:0
#  MoveToMap 9165 15139 -583 381 7d36.blv
28 F6 01 00 06 CD 23 00 00 23 3B 00 00 B9 FD FF FF 18 00 00 00 00 00 00 00 00 00 00 00 7D 01 03 37 64 33 36 2E 62 6C 76 00
#503:0
#  Hint 32
05 F7 01 00 04 20
#503:0
#  MoveToMap -54 3470 1 0 mdt12.blv
29 F7 01 00 06 CA FF FF FF 8E 0D 00 00 01 00 00 00 00 06 00 00 00 00 00 00 00 00 00 00 00 00 03 6D 64 74 31 32 2E 62 6C 76 00
#504:0
#  Hint 32
05 F8 01 00 04 20
#504:0
#  MoveToMap 19341 21323 1 0 mdt12.blv
29 F8 01 00 06 8D 4B 00 00 4B 53 00 00 01 00 00 00 00 01 00 00 00 00 00 00 00 00 00 00 00 00 03 6D 64 74 31 32 2E 62 6C 76 00
